<?xml version="1.0" encoding="UTF-8" standalone="no"?>
<!-- Created with Inkscape (http://www.inkscape.org/) -->

<svg
   xmlns:dc="http://purl.org/dc/elements/1.1/"
   xmlns:cc="http://creativecommons.org/ns#"
   xmlns:rdf="http://www.w3.org/1999/02/22-rdf-syntax-ns#"
   xmlns:svg="http://www.w3.org/2000/svg"
   xmlns="http://www.w3.org/2000/svg"
   xmlns:sodipodi="http://sodipodi.sourceforge.net/DTD/sodipodi-0.dtd"
   xmlns:inkscape="http://www.inkscape.org/namespaces/inkscape"
   width="147.67078mm"
   height="100.61617mm"
   viewBox="0 0 523.24292 356.514"
   id="svg4840"
   version="1.1"
   inkscape:version="0.92.3pre0 (0ab9bec, 2018-03-03)"
   sodipodi:docname="harmonic_function.svg">
  <defs
     id="defs4842">
    <marker
       inkscape:stockid="Arrow2Mend"
       orient="auto"
       refY="0"
       refX="0"
       id="marker5584"
       style="overflow:visible"
       inkscape:isstock="true">
      <path
         id="path5346"
         style="fill:#0087ff;fill-opacity:1;fill-rule:evenodd;stroke:#0087ff;stroke-width:0.625;stroke-linejoin:round;stroke-opacity:1"
         d="M 8.7185878,4.0337352 -2.2072895,0.01601326 8.7185884,-4.0017078 c -1.7454984,2.3720609 -1.7354408,5.6174519 -6e-7,8.035443 z"
         transform="scale(-0.6)"
         inkscape:connector-curvature="0" />
    </marker>
    <marker
       inkscape:stockid="Arrow1Mend"
       orient="auto"
       refY="0"
       refX="0"
       id="Arrow1Mend"
       style="overflow:visible"
       inkscape:isstock="true">
      <path
         id="path5328"
         d="M 0,0 5,-5 -12.5,0 5,5 Z"
         style="fill:#0087ff;fill-opacity:1;fill-rule:evenodd;stroke:#0087ff;stroke-width:1.00000003pt;stroke-opacity:1"
         transform="matrix(-0.4,0,0,-0.4,-4,0)"
         inkscape:connector-curvature="0" />
    </marker>
    <marker
       inkscape:isstock="true"
       style="overflow:visible"
       id="marker10695"
       refX="0"
       refY="0"
       orient="auto"
       inkscape:stockid="Arrow2Mend">
      <path
         transform="scale(-0.6)"
         d="M 8.7185878,4.0337352 -2.2072895,0.01601326 8.7185884,-4.0017078 c -1.7454984,2.3720609 -1.7354408,5.6174519 -6e-7,8.035443 z"
         style="fill:#0087ff;fill-opacity:1;fill-rule:evenodd;stroke:#0087ff;stroke-width:0.625;stroke-linejoin:round;stroke-opacity:1"
         id="path10693"
         inkscape:connector-curvature="0" />
    </marker>
    <marker
       inkscape:isstock="true"
       style="overflow:visible"
       id="marker10691"
       refX="0"
       refY="0"
       orient="auto"
       inkscape:stockid="Arrow2Mend">
      <path
         transform="scale(-0.6)"
         d="M 8.7185878,4.0337352 -2.2072895,0.01601326 8.7185884,-4.0017078 c -1.7454984,2.3720609 -1.7354408,5.6174519 -6e-7,8.035443 z"
         style="fill:#0087ff;fill-opacity:1;fill-rule:evenodd;stroke:#0087ff;stroke-width:0.625;stroke-linejoin:round;stroke-opacity:1"
         id="path10689"
         inkscape:connector-curvature="0" />
    </marker>
    <marker
       inkscape:isstock="true"
       style="overflow:visible"
       id="marker10687"
       refX="0"
       refY="0"
       orient="auto"
       inkscape:stockid="Arrow2Mend">
      <path
         transform="scale(-0.6)"
         d="M 8.7185878,4.0337352 -2.2072895,0.01601326 8.7185884,-4.0017078 c -1.7454984,2.3720609 -1.7354408,5.6174519 -6e-7,8.035443 z"
         style="fill:#0087ff;fill-opacity:1;fill-rule:evenodd;stroke:#0087ff;stroke-width:0.625;stroke-linejoin:round;stroke-opacity:1"
         id="path10685"
         inkscape:connector-curvature="0" />
    </marker>
    <marker
       inkscape:isstock="true"
       style="overflow:visible"
       id="marker10683"
       refX="0"
       refY="0"
       orient="auto"
       inkscape:stockid="Arrow2Mend">
      <path
         transform="scale(-0.6)"
         d="M 8.7185878,4.0337352 -2.2072895,0.01601326 8.7185884,-4.0017078 c -1.7454984,2.3720609 -1.7354408,5.6174519 -6e-7,8.035443 z"
         style="fill:#0087ff;fill-opacity:1;fill-rule:evenodd;stroke:#0087ff;stroke-width:0.625;stroke-linejoin:round;stroke-opacity:1"
         id="path10681"
         inkscape:connector-curvature="0" />
    </marker>
    <marker
       inkscape:isstock="true"
       style="overflow:visible"
       id="marker10679"
       refX="0"
       refY="0"
       orient="auto"
       inkscape:stockid="Arrow2Mend">
      <path
         transform="scale(-0.6)"
         d="M 8.7185878,4.0337352 -2.2072895,0.01601326 8.7185884,-4.0017078 c -1.7454984,2.3720609 -1.7354408,5.6174519 -6e-7,8.035443 z"
         style="fill:#0087ff;fill-opacity:1;fill-rule:evenodd;stroke:#0087ff;stroke-width:0.625;stroke-linejoin:round;stroke-opacity:1"
         id="path10677"
         inkscape:connector-curvature="0" />
    </marker>
    <marker
       inkscape:stockid="Arrow2Mend"
       orient="auto"
       refY="0"
       refX="0"
       id="marker10675"
       style="overflow:visible"
       inkscape:isstock="true"
       inkscape:collect="always">
      <path
         id="path10673"
         style="fill:#0087ff;fill-opacity:1;fill-rule:evenodd;stroke:#0087ff;stroke-width:0.625;stroke-linejoin:round;stroke-opacity:1"
         d="M 8.7185878,4.0337352 -2.2072895,0.01601326 8.7185884,-4.0017078 c -1.7454984,2.3720609 -1.7354408,5.6174519 -6e-7,8.035443 z"
         transform="scale(-0.6)"
         inkscape:connector-curvature="0" />
    </marker>
    <marker
       inkscape:isstock="true"
       style="overflow:visible"
       id="marker6933"
       refX="0"
       refY="0"
       orient="auto"
       inkscape:stockid="Arrow2Mend">
      <path
         transform="scale(-0.6)"
         d="M 8.7185878,4.0337352 -2.2072895,0.01601326 8.7185884,-4.0017078 c -1.7454984,2.3720609 -1.7354408,5.6174519 -6e-7,8.035443 z"
         style="fill:#000000;fill-opacity:1;fill-rule:evenodd;stroke:#000000;stroke-width:0.625;stroke-linejoin:round;stroke-opacity:1"
         id="path6931"
         inkscape:connector-curvature="0" />
    </marker>
    <marker
       inkscape:isstock="true"
       style="overflow:visible"
       id="marker6929"
       refX="0"
       refY="0"
       orient="auto"
       inkscape:stockid="Arrow2Mend">
      <path
         transform="scale(-0.6)"
         d="M 8.7185878,4.0337352 -2.2072895,0.01601326 8.7185884,-4.0017078 c -1.7454984,2.3720609 -1.7354408,5.6174519 -6e-7,8.035443 z"
         style="fill:#000000;fill-opacity:1;fill-rule:evenodd;stroke:#000000;stroke-width:0.625;stroke-linejoin:round;stroke-opacity:1"
         id="path6927"
         inkscape:connector-curvature="0" />
    </marker>
    <marker
       inkscape:isstock="true"
       style="overflow:visible"
       id="marker6925"
       refX="0"
       refY="0"
       orient="auto"
       inkscape:stockid="Arrow2Mend">
      <path
         transform="scale(-0.6)"
         d="M 8.7185878,4.0337352 -2.2072895,0.01601326 8.7185884,-4.0017078 c -1.7454984,2.3720609 -1.7354408,5.6174519 -6e-7,8.035443 z"
         style="fill:#000000;fill-opacity:1;fill-rule:evenodd;stroke:#000000;stroke-width:0.625;stroke-linejoin:round;stroke-opacity:1"
         id="path6923"
         inkscape:connector-curvature="0" />
    </marker>
    <marker
       inkscape:isstock="true"
       style="overflow:visible"
       id="marker6921"
       refX="0"
       refY="0"
       orient="auto"
       inkscape:stockid="Arrow2Mend">
      <path
         transform="scale(-0.6)"
         d="M 8.7185878,4.0337352 -2.2072895,0.01601326 8.7185884,-4.0017078 c -1.7454984,2.3720609 -1.7354408,5.6174519 -6e-7,8.035443 z"
         style="fill:#0087ff;fill-opacity:1;fill-rule:evenodd;stroke:#0087ff;stroke-width:0.625;stroke-linejoin:round;stroke-opacity:1"
         id="path6919"
         inkscape:connector-curvature="0" />
    </marker>
    <marker
       inkscape:isstock="true"
       style="overflow:visible"
       id="marker6917"
       refX="0"
       refY="0"
       orient="auto"
       inkscape:stockid="Arrow2Mend">
      <path
         transform="scale(-0.6)"
         d="M 8.7185878,4.0337352 -2.2072895,0.01601326 8.7185884,-4.0017078 c -1.7454984,2.3720609 -1.7354408,5.6174519 -6e-7,8.035443 z"
         style="fill:#0087ff;fill-opacity:1;fill-rule:evenodd;stroke:#0087ff;stroke-width:0.625;stroke-linejoin:round;stroke-opacity:1"
         id="path6915"
         inkscape:connector-curvature="0" />
    </marker>
    <marker
       inkscape:isstock="true"
       style="overflow:visible"
       id="marker6913"
       refX="0"
       refY="0"
       orient="auto"
       inkscape:stockid="Arrow2Mend">
      <path
         transform="scale(-0.6)"
         d="M 8.7185878,4.0337352 -2.2072895,0.01601326 8.7185884,-4.0017078 c -1.7454984,2.3720609 -1.7354408,5.6174519 -6e-7,8.035443 z"
         style="fill:#0087ff;fill-opacity:1;fill-rule:evenodd;stroke:#0087ff;stroke-width:0.625;stroke-linejoin:round;stroke-opacity:1"
         id="path6911"
         inkscape:connector-curvature="0" />
    </marker>
    <marker
       inkscape:isstock="true"
       style="overflow:visible"
       id="marker6909"
       refX="0"
       refY="0"
       orient="auto"
       inkscape:stockid="Arrow2Mend">
      <path
         transform="scale(-0.6)"
         d="M 8.7185878,4.0337352 -2.2072895,0.01601326 8.7185884,-4.0017078 c -1.7454984,2.3720609 -1.7354408,5.6174519 -6e-7,8.035443 z"
         style="fill:#0087ff;fill-opacity:1;fill-rule:evenodd;stroke:#0087ff;stroke-width:0.625;stroke-linejoin:round;stroke-opacity:1"
         id="path6907"
         inkscape:connector-curvature="0" />
    </marker>
    <marker
       inkscape:isstock="true"
       style="overflow:visible"
       id="marker6905"
       refX="0"
       refY="0"
       orient="auto"
       inkscape:stockid="Arrow2Mend">
      <path
         transform="scale(-0.6)"
         d="M 8.7185878,4.0337352 -2.2072895,0.01601326 8.7185884,-4.0017078 c -1.7454984,2.3720609 -1.7354408,5.6174519 -6e-7,8.035443 z"
         style="fill:#fa0000;fill-opacity:1;fill-rule:evenodd;stroke:#fa0000;stroke-width:0.625;stroke-linejoin:round;stroke-opacity:1"
         id="path6903"
         inkscape:connector-curvature="0" />
    </marker>
    <marker
       inkscape:isstock="true"
       style="overflow:visible"
       id="marker6901"
       refX="0"
       refY="0"
       orient="auto"
       inkscape:stockid="Arrow2Mend">
      <path
         transform="scale(-0.6)"
         d="M 8.7185878,4.0337352 -2.2072895,0.01601326 8.7185884,-4.0017078 c -1.7454984,2.3720609 -1.7354408,5.6174519 -6e-7,8.035443 z"
         style="fill:#fa0000;fill-opacity:1;fill-rule:evenodd;stroke:#fa0000;stroke-width:0.625;stroke-linejoin:round;stroke-opacity:1"
         id="path6899"
         inkscape:connector-curvature="0" />
    </marker>
    <marker
       inkscape:isstock="true"
       style="overflow:visible"
       id="marker6897"
       refX="0"
       refY="0"
       orient="auto"
       inkscape:stockid="Arrow2Mend">
      <path
         transform="scale(-0.6)"
         d="M 8.7185878,4.0337352 -2.2072895,0.01601326 8.7185884,-4.0017078 c -1.7454984,2.3720609 -1.7354408,5.6174519 -6e-7,8.035443 z"
         style="fill:#fa0000;fill-opacity:1;fill-rule:evenodd;stroke:#fa0000;stroke-width:0.625;stroke-linejoin:round;stroke-opacity:1"
         id="path6895"
         inkscape:connector-curvature="0" />
    </marker>
    <marker
       inkscape:isstock="true"
       style="overflow:visible"
       id="marker6893"
       refX="0"
       refY="0"
       orient="auto"
       inkscape:stockid="Arrow2Mend">
      <path
         transform="scale(-0.6)"
         d="M 8.7185878,4.0337352 -2.2072895,0.01601326 8.7185884,-4.0017078 c -1.7454984,2.3720609 -1.7354408,5.6174519 -6e-7,8.035443 z"
         style="fill:#fa0000;fill-opacity:1;fill-rule:evenodd;stroke:#fa0000;stroke-width:0.625;stroke-linejoin:round;stroke-opacity:1"
         id="path6891"
         inkscape:connector-curvature="0" />
    </marker>
    <marker
       inkscape:isstock="true"
       style="overflow:visible"
       id="marker6889"
       refX="0"
       refY="0"
       orient="auto"
       inkscape:stockid="Arrow2Mend">
      <path
         transform="scale(-0.6)"
         d="M 8.7185878,4.0337352 -2.2072895,0.01601326 8.7185884,-4.0017078 c -1.7454984,2.3720609 -1.7354408,5.6174519 -6e-7,8.035443 z"
         style="fill:#fa0000;fill-opacity:1;fill-rule:evenodd;stroke:#fa0000;stroke-width:0.625;stroke-linejoin:round;stroke-opacity:1"
         id="path6887"
         inkscape:connector-curvature="0" />
    </marker>
    <marker
       inkscape:isstock="true"
       style="overflow:visible"
       id="marker6885"
       refX="0"
       refY="0"
       orient="auto"
       inkscape:stockid="Arrow2Mend">
      <path
         transform="scale(-0.6)"
         d="M 8.7185878,4.0337352 -2.2072895,0.01601326 8.7185884,-4.0017078 c -1.7454984,2.3720609 -1.7354408,5.6174519 -6e-7,8.035443 z"
         style="fill:#0087ff;fill-opacity:1;fill-rule:evenodd;stroke:#0087ff;stroke-width:0.625;stroke-linejoin:round;stroke-opacity:1"
         id="path6883"
         inkscape:connector-curvature="0" />
    </marker>
    <marker
       inkscape:isstock="true"
       style="overflow:visible"
       id="marker6881"
       refX="0"
       refY="0"
       orient="auto"
       inkscape:stockid="Arrow2Mend">
      <path
         transform="scale(-0.6)"
         d="M 8.7185878,4.0337352 -2.2072895,0.01601326 8.7185884,-4.0017078 c -1.7454984,2.3720609 -1.7354408,5.6174519 -6e-7,8.035443 z"
         style="fill:#0087ff;fill-opacity:1;fill-rule:evenodd;stroke:#0087ff;stroke-width:0.625;stroke-linejoin:round;stroke-opacity:1"
         id="path6879"
         inkscape:connector-curvature="0" />
    </marker>
    <marker
       inkscape:isstock="true"
       style="overflow:visible"
       id="marker6877"
       refX="0"
       refY="0"
       orient="auto"
       inkscape:stockid="Arrow2Mend">
      <path
         transform="scale(-0.6)"
         d="M 8.7185878,4.0337352 -2.2072895,0.01601326 8.7185884,-4.0017078 c -1.7454984,2.3720609 -1.7354408,5.6174519 -6e-7,8.035443 z"
         style="fill:#0087ff;fill-opacity:1;fill-rule:evenodd;stroke:#0087ff;stroke-width:0.625;stroke-linejoin:round;stroke-opacity:1"
         id="path6875"
         inkscape:connector-curvature="0" />
    </marker>
    <marker
       inkscape:isstock="true"
       style="overflow:visible"
       id="marker6873"
       refX="0"
       refY="0"
       orient="auto"
       inkscape:stockid="Arrow2Mend">
      <path
         transform="scale(-0.6)"
         d="M 8.7185878,4.0337352 -2.2072895,0.01601326 8.7185884,-4.0017078 c -1.7454984,2.3720609 -1.7354408,5.6174519 -6e-7,8.035443 z"
         style="fill:#0087ff;fill-opacity:1;fill-rule:evenodd;stroke:#0087ff;stroke-width:0.625;stroke-linejoin:round;stroke-opacity:1"
         id="path6871"
         inkscape:connector-curvature="0" />
    </marker>
    <marker
       inkscape:isstock="true"
       style="overflow:visible"
       id="marker6869"
       refX="0"
       refY="0"
       orient="auto"
       inkscape:stockid="Arrow2Mend">
      <path
         transform="scale(-0.6)"
         d="M 8.7185878,4.0337352 -2.2072895,0.01601326 8.7185884,-4.0017078 c -1.7454984,2.3720609 -1.7354408,5.6174519 -6e-7,8.035443 z"
         style="fill:#000000;fill-opacity:1;fill-rule:evenodd;stroke:none;stroke-width:0.625;stroke-linejoin:round;stroke-opacity:1"
         id="path6867"
         inkscape:connector-curvature="0" />
    </marker>
    <marker
       inkscape:isstock="true"
       style="overflow:visible"
       id="marker6865"
       refX="0"
       refY="0"
       orient="auto"
       inkscape:stockid="Arrow2Mend">
      <path
         transform="scale(-0.6)"
         d="M 8.7185878,4.0337352 -2.2072895,0.01601326 8.7185884,-4.0017078 c -1.7454984,2.3720609 -1.7354408,5.6174519 -6e-7,8.035443 z"
         style="fill:#000000;fill-opacity:1;fill-rule:evenodd;stroke:none;stroke-width:0.625;stroke-linejoin:round;stroke-opacity:1"
         id="path6863"
         inkscape:connector-curvature="0" />
    </marker>
    <marker
       inkscape:isstock="true"
       style="overflow:visible"
       id="marker6861"
       refX="0"
       refY="0"
       orient="auto"
       inkscape:stockid="Arrow2Mend">
      <path
         transform="scale(-0.6)"
         d="M 8.7185878,4.0337352 -2.2072895,0.01601326 8.7185884,-4.0017078 c -1.7454984,2.3720609 -1.7354408,5.6174519 -6e-7,8.035443 z"
         style="fill:#0087ff;fill-opacity:1;fill-rule:evenodd;stroke:#0087ff;stroke-width:0.625;stroke-linejoin:round;stroke-opacity:1"
         id="path6859"
         inkscape:connector-curvature="0" />
    </marker>
    <marker
       inkscape:stockid="Arrow2Mend"
       orient="auto"
       refY="0"
       refX="0"
       id="Arrow2Mend"
       style="overflow:visible"
       inkscape:isstock="true">
      <path
         id="path6532"
         style="fill:#0087ff;fill-opacity:1;fill-rule:evenodd;stroke:#0087ff;stroke-width:0.625;stroke-linejoin:round;stroke-opacity:1"
         d="M 8.7185878,4.0337352 -2.2072895,0.01601326 8.7185884,-4.0017078 c -1.7454984,2.3720609 -1.7354408,5.6174519 -6e-7,8.035443 z"
         transform="scale(-0.6)"
         inkscape:connector-curvature="0" />
    </marker>
    <marker
       inkscape:isstock="true"
       style="overflow:visible"
       id="marker6851"
       refX="0"
       refY="0"
       orient="auto"
       inkscape:stockid="Arrow1Send">
      <path
         transform="matrix(-0.2,0,0,-0.2,-1.2,0)"
         style="fill:#fa0000;fill-opacity:1;fill-rule:evenodd;stroke:#fa0000;stroke-width:1.00000003pt;stroke-opacity:1"
         d="M 0,0 5,-5 -12.5,0 5,5 Z"
         id="path6849"
         inkscape:connector-curvature="0" />
    </marker>
    <marker
       inkscape:stockid="Arrow1Send"
       orient="auto"
       refY="0"
       refX="0"
       id="marker6843"
       style="overflow:visible"
       inkscape:isstock="true">
      <path
         id="path6841"
         d="M 0,0 5,-5 -12.5,0 5,5 Z"
         style="fill:#0087ff;fill-opacity:1;fill-rule:evenodd;stroke:#0087ff;stroke-width:1.00000003pt;stroke-opacity:1"
         transform="matrix(-0.2,0,0,-0.2,-1.2,0)"
         inkscape:connector-curvature="0" />
    </marker>
    <marker
       inkscape:isstock="true"
       style="overflow:visible"
       id="marker6839"
       refX="0"
       refY="0"
       orient="auto"
       inkscape:stockid="Arrow1Send">
      <path
         transform="matrix(-0.2,0,0,-0.2,-1.2,0)"
         style="fill:#0087ff;fill-opacity:1;fill-rule:evenodd;stroke:#0087ff;stroke-width:1.00000003pt;stroke-opacity:1"
         d="M 0,0 5,-5 -12.5,0 5,5 Z"
         id="path6837"
         inkscape:connector-curvature="0" />
    </marker>
    <marker
       inkscape:isstock="true"
       style="overflow:visible"
       id="marker6835"
       refX="0"
       refY="0"
       orient="auto"
       inkscape:stockid="Arrow1Send">
      <path
         transform="matrix(-0.2,0,0,-0.2,-1.2,0)"
         style="fill:#0087ff;fill-opacity:1;fill-rule:evenodd;stroke:#0087ff;stroke-width:1.00000003pt;stroke-opacity:1"
         d="M 0,0 5,-5 -12.5,0 5,5 Z"
         id="path6833"
         inkscape:connector-curvature="0" />
    </marker>
    <marker
       inkscape:isstock="true"
       style="overflow:visible"
       id="marker6831"
       refX="0"
       refY="0"
       orient="auto"
       inkscape:stockid="Arrow1Send">
      <path
         transform="matrix(-0.2,0,0,-0.2,-1.2,0)"
         style="fill:#0087ff;fill-opacity:1;fill-rule:evenodd;stroke:#0087ff;stroke-width:1.00000003pt;stroke-opacity:1"
         d="M 0,0 5,-5 -12.5,0 5,5 Z"
         id="path6829"
         inkscape:connector-curvature="0" />
    </marker>
    <marker
       inkscape:isstock="true"
       style="overflow:visible"
       id="marker6827"
       refX="0"
       refY="0"
       orient="auto"
       inkscape:stockid="Arrow1Send">
      <path
         transform="matrix(-0.2,0,0,-0.2,-1.2,0)"
         style="fill:#0087ff;fill-opacity:1;fill-rule:evenodd;stroke:#0087ff;stroke-width:1.00000003pt;stroke-opacity:1"
         d="M 0,0 5,-5 -12.5,0 5,5 Z"
         id="path6825"
         inkscape:connector-curvature="0" />
    </marker>
    <marker
       inkscape:isstock="true"
       style="overflow:visible"
       id="marker6823"
       refX="0"
       refY="0"
       orient="auto"
       inkscape:stockid="Arrow1Send">
      <path
         transform="matrix(-0.2,0,0,-0.2,-1.2,0)"
         style="fill:#0087ff;fill-opacity:1;fill-rule:evenodd;stroke:#0087ff;stroke-width:1.00000003pt;stroke-opacity:1"
         d="M 0,0 5,-5 -12.5,0 5,5 Z"
         id="path6821"
         inkscape:connector-curvature="0" />
    </marker>
    <marker
       inkscape:isstock="true"
       style="overflow:visible"
       id="marker6815"
       refX="0"
       refY="0"
       orient="auto"
       inkscape:stockid="Arrow1Sstart">
      <path
         transform="matrix(0.2,0,0,0.2,1.2,0)"
         style="fill:#0087ff;fill-opacity:1;fill-rule:evenodd;stroke:#0087ff;stroke-width:1.00000003pt;stroke-opacity:1"
         d="M 0,0 5,-5 -12.5,0 5,5 Z"
         id="path6813"
         inkscape:connector-curvature="0" />
    </marker>
    <marker
       inkscape:isstock="true"
       style="overflow:visible"
       id="marker6811"
       refX="0"
       refY="0"
       orient="auto"
       inkscape:stockid="Arrow1Sstart">
      <path
         transform="matrix(0.2,0,0,0.2,1.2,0)"
         style="fill:#0087ff;fill-opacity:1;fill-rule:evenodd;stroke:#0087ff;stroke-width:1.00000003pt;stroke-opacity:1"
         d="M 0,0 5,-5 -12.5,0 5,5 Z"
         id="path6809"
         inkscape:connector-curvature="0" />
    </marker>
    <marker
       inkscape:isstock="true"
       style="overflow:visible"
       id="marker6807"
       refX="0"
       refY="0"
       orient="auto"
       inkscape:stockid="Arrow1Sstart">
      <path
         transform="matrix(0.2,0,0,0.2,1.2,0)"
         style="fill:#0087ff;fill-opacity:1;fill-rule:evenodd;stroke:#0087ff;stroke-width:1.00000003pt;stroke-opacity:1"
         d="M 0,0 5,-5 -12.5,0 5,5 Z"
         id="path6805"
         inkscape:connector-curvature="0" />
    </marker>
    <marker
       inkscape:isstock="true"
       style="overflow:visible"
       id="marker6803"
       refX="0"
       refY="0"
       orient="auto"
       inkscape:stockid="Arrow1Sstart">
      <path
         transform="matrix(0.2,0,0,0.2,1.2,0)"
         style="fill:#0087ff;fill-opacity:1;fill-rule:evenodd;stroke:#0087ff;stroke-width:1.00000003pt;stroke-opacity:1"
         d="M 0,0 5,-5 -12.5,0 5,5 Z"
         id="path6801"
         inkscape:connector-curvature="0" />
    </marker>
    <marker
       inkscape:isstock="true"
       style="overflow:visible"
       id="marker6799"
       refX="0"
       refY="0"
       orient="auto"
       inkscape:stockid="Arrow1Sstart">
      <path
         transform="matrix(0.2,0,0,0.2,1.2,0)"
         style="fill:#0087ff;fill-opacity:1;fill-rule:evenodd;stroke:#0087ff;stroke-width:1.00000003pt;stroke-opacity:1"
         d="M 0,0 5,-5 -12.5,0 5,5 Z"
         id="path6797"
         inkscape:connector-curvature="0" />
    </marker>
    <marker
       inkscape:isstock="true"
       style="overflow:visible"
       id="marker6791"
       refX="0"
       refY="0"
       orient="auto"
       inkscape:stockid="Arrow1Sstart">
      <path
         transform="matrix(0.2,0,0,0.2,1.2,0)"
         style="fill:#fa0000;fill-opacity:1;fill-rule:evenodd;stroke:#fa0000;stroke-width:1.00000003pt;stroke-opacity:1"
         d="M 0,0 5,-5 -12.5,0 5,5 Z"
         id="path6789"
         inkscape:connector-curvature="0" />
    </marker>
    <marker
       inkscape:isstock="true"
       style="overflow:visible"
       id="marker6783"
       refX="0"
       refY="0"
       orient="auto"
       inkscape:stockid="Arrow1Sstart">
      <path
         transform="matrix(0.2,0,0,0.2,1.2,0)"
         style="fill:#fa0000;fill-opacity:1;fill-rule:evenodd;stroke:#fa0000;stroke-width:1.00000003pt;stroke-opacity:1"
         d="M 0,0 5,-5 -12.5,0 5,5 Z"
         id="path6781"
         inkscape:connector-curvature="0" />
    </marker>
    <marker
       inkscape:isstock="true"
       style="overflow:visible"
       id="marker6777"
       refX="0"
       refY="0"
       orient="auto"
       inkscape:stockid="Arrow1Send">
      <path
         transform="matrix(-0.2,0,0,-0.2,-1.2,0)"
         style="fill:#0087ff;fill-opacity:1;fill-rule:evenodd;stroke:#0087ff;stroke-width:1.00000003pt;stroke-opacity:1"
         d="M 0,0 5,-5 -12.5,0 5,5 Z"
         id="path6775"
         inkscape:connector-curvature="0" />
    </marker>
    <marker
       style="overflow:visible"
       id="Arrow1LstartI-2-3"
       refX="0"
       refY="0"
       orient="auto"
       inkscape:stockid="Arrow1LstartI">
      <path
         inkscape:connector-curvature="0"
         style="fill:#0000ff;fill-rule:evenodd;stroke:#0000ff;stroke-width:0.85333335pt"
         d="M 10.666667,0 14.933333,-4.2666667 0,0 14.933333,4.2666667 Z"
         id="path5532-9-6" />
    </marker>
    <marker
       style="overflow:visible"
       id="marker10446"
       refX="0"
       refY="0"
       orient="auto"
       inkscape:stockid="Arrow1LstartI">
      <path
         inkscape:connector-curvature="0"
         style="fill:#0000ff;fill-rule:evenodd;stroke:#0000ff;stroke-width:0.85333335pt"
         d="M 10.666667,0 14.933333,-4.2666667 0,0 14.933333,4.2666667 Z"
         id="path10444" />
    </marker>
    <marker
       style="overflow:visible"
       id="Arrow1LstartI-2"
       refX="0"
       refY="0"
       orient="auto"
       inkscape:stockid="Arrow1LstartI">
      <path
         inkscape:connector-curvature="0"
         style="fill:#0000ff;fill-rule:evenodd;stroke:#0000ff;stroke-width:0.85333335pt"
         d="M 10.666667,0 14.933333,-4.2666667 0,0 14.933333,4.2666667 Z"
         id="path5532-9" />
    </marker>
    <marker
       style="overflow:visible"
       id="marker10452"
       refX="0"
       refY="0"
       orient="auto"
       inkscape:stockid="Arrow1LstartI">
      <path
         inkscape:connector-curvature="0"
         style="fill:#0000ff;fill-rule:evenodd;stroke:#0000ff;stroke-width:0.85333335pt"
         d="M 10.666667,0 14.933333,-4.2666667 0,0 14.933333,4.2666667 Z"
         id="path10450" />
    </marker>
    <marker
       style="overflow:visible"
       id="Arrow1LstartI-7"
       refX="0"
       refY="0"
       orient="auto"
       inkscape:stockid="Arrow1LstartI">
      <path
         inkscape:connector-curvature="0"
         style="fill:#0000ff;fill-rule:evenodd;stroke:#0000ff;stroke-width:0.85333335pt"
         d="M 10.666667,0 14.933333,-4.2666667 0,0 14.933333,4.2666667 Z"
         id="path5532-5" />
    </marker>
    <marker
       style="overflow:visible"
       id="marker10458"
       refX="0"
       refY="0"
       orient="auto"
       inkscape:stockid="Arrow1LstartI">
      <path
         inkscape:connector-curvature="0"
         style="fill:#0000ff;fill-rule:evenodd;stroke:#0000ff;stroke-width:0.85333335pt"
         d="M 10.666667,0 14.933333,-4.2666667 0,0 14.933333,4.2666667 Z"
         id="path10456" />
    </marker>
    <marker
       style="overflow:visible"
       id="Arrow1LstartI"
       refX="0"
       refY="0"
       orient="auto"
       inkscape:stockid="Arrow1LstartI">
      <path
         inkscape:connector-curvature="0"
         style="fill:#0000ff;fill-rule:evenodd;stroke:#0000ff;stroke-width:0.85333335pt"
         d="M 10.666667,0 14.933333,-4.2666667 0,0 14.933333,4.2666667 Z"
         id="path5532" />
    </marker>
    <marker
       style="overflow:visible"
       id="marker10464"
       refX="0"
       refY="0"
       orient="auto"
       inkscape:stockid="Arrow1LstartI">
      <path
         inkscape:connector-curvature="0"
         style="fill:#0000ff;fill-rule:evenodd;stroke:#0000ff;stroke-width:0.85333335pt"
         d="M 10.666667,0 14.933333,-4.2666667 0,0 14.933333,4.2666667 Z"
         id="path10462" />
    </marker>
    <marker
       style="overflow:visible"
       id="Arrow1Lstarth-9"
       refX="0"
       refY="0"
       orient="auto"
       inkscape:stockid="Arrow1Lstarth">
      <path
         style="fill:#0000ff;fill-rule:evenodd;stroke:#0000ff;stroke-width:0.85333335pt"
         d="M 10.666667,0 14.933333,-4.2666667 0,0 14.933333,4.2666667 Z"
         id="path5526-2"
         inkscape:connector-curvature="0" />
    </marker>
    <marker
       style="overflow:visible"
       id="Arrow1Lstarth-6"
       refX="0"
       refY="0"
       orient="auto"
       inkscape:stockid="Arrow1Lstarth">
      <path
         style="fill:#0000ff;fill-rule:evenodd;stroke:#0000ff;stroke-width:0.85333335pt"
         d="M 10.666667,0 14.933333,-4.2666667 0,0 14.933333,4.2666667 Z"
         id="path5526-1"
         inkscape:connector-curvature="0" />
    </marker>
    <marker
       style="overflow:visible"
       id="Arrow1Lstarth-3"
       refX="0"
       refY="0"
       orient="auto"
       inkscape:stockid="Arrow1Lstarth">
      <path
         style="fill:#0000ff;fill-rule:evenodd;stroke:#0000ff;stroke-width:0.85333335pt"
         d="M 10.666667,0 14.933333,-4.2666667 0,0 14.933333,4.2666667 Z"
         id="path5526-6"
         inkscape:connector-curvature="0" />
    </marker>
    <marker
       style="overflow:visible"
       id="Arrow1Lstarth-2"
       refX="0"
       refY="0"
       orient="auto"
       inkscape:stockid="Arrow1Lstarth">
      <path
         style="fill:#0000ff;fill-rule:evenodd;stroke:#0000ff;stroke-width:0.85333335pt"
         d="M 10.666667,0 14.933333,-4.2666667 0,0 14.933333,4.2666667 Z"
         id="path5526-7"
         inkscape:connector-curvature="0" />
    </marker>
    <marker
       style="overflow:visible"
       id="Arrow1Lstarth"
       refX="0"
       refY="0"
       orient="auto"
       inkscape:stockid="Arrow1Lstarth">
      <path
         style="fill:#0000ff;fill-rule:evenodd;stroke:#0000ff;stroke-width:0.85333335pt"
         d="M 10.666667,0 14.933333,-4.2666667 0,0 14.933333,4.2666667 Z"
         id="path5526"
         inkscape:connector-curvature="0" />
    </marker>
    <marker
       style="overflow:visible"
       id="Arrow1Lstarth-7-9"
       refX="0"
       refY="0"
       orient="auto"
       inkscape:stockid="Arrow1Lstarth">
      <path
         style="fill:#0000ff;fill-rule:evenodd;stroke:#0000ff;stroke-width:0.85333335pt"
         d="M 10.666667,0 14.933333,-4.2666667 0,0 14.933333,4.2666667 Z"
         id="path5526-5-3"
         inkscape:connector-curvature="0" />
    </marker>
  </defs>
  <sodipodi:namedview
     id="base"
     pagecolor="#ffffff"
     bordercolor="#666666"
     borderopacity="1.0"
     inkscape:pageopacity="0.0"
     inkscape:pageshadow="2"
     inkscape:zoom="2.8"
     inkscape:cx="328.38591"
     inkscape:cy="175.40133"
     inkscape:document-units="px"
     inkscape:current-layer="layer1"
     showgrid="false"
     fit-margin-top="0"
     fit-margin-left="0"
     fit-margin-right="0"
     fit-margin-bottom="0"
     inkscape:window-width="1920"
     inkscape:window-height="1030"
     inkscape:window-x="0"
     inkscape:window-y="21"
     inkscape:window-maximized="1" />
  <metadata
     id="metadata4845">
    <rdf:RDF>
      <cc:Work
         rdf:about="">
        <dc:format>image/svg+xml</dc:format>
        <dc:type
           rdf:resource="http://purl.org/dc/dcmitype/StillImage" />
        <dc:title></dc:title>
      </cc:Work>
    </rdf:RDF>
  </metadata>
  <g
     inkscape:label="Layer 1"
     inkscape:groupmode="layer"
     id="layer1"
     transform="translate(-322.84188,-170.90576)">
    <text
       xml:space="preserve"
       style="font-style:normal;font-weight:normal;font-size:4.6875px;line-height:23.4375px;font-family:sans-serif;letter-spacing:0px;word-spacing:0px;fill:#000000;fill-opacity:1;stroke:none;stroke-width:0.9375px;stroke-linecap:butt;stroke-linejoin:miter;stroke-opacity:1"
       x="555.37128"
       y="338.58044"
       id="text10647"><tspan
         sodipodi:role="line"
         x="555.37128"
         y="338.58044"
         style="stroke-width:0.9375px"
         id="tspan10649">$\leadsto$</tspan></text>
    <path
       style="fill:none;fill-rule:evenodd;stroke:#fa0000;stroke-width:1.5625;stroke-linecap:round;stroke-linejoin:miter;stroke-miterlimit:4;stroke-dasharray:4.68750004, 4.68750004;stroke-dashoffset:0;stroke-opacity:1;marker-mid:url(#marker6889)"
       d="m 418.7201,367.23124 c 3.36442,-10.33833 12.35503,-10.42314 19.45903,-0.068 3.59358,5.23819 2.94409,37.29553 1.48458,67.69842 -1.42573,29.69907 -3.44685,55.92537 -3.21838,55.92537"
       id="path6456"
       inkscape:connector-curvature="0"
       sodipodi:nodetypes="cssc" />
    <path
       inkscape:connector-curvature="0"
       style="opacity:0.98000004;fill:none;fill-opacity:1;fill-rule:evenodd;stroke:#000000;stroke-width:2.50000002;stroke-linecap:round;stroke-linejoin:round;stroke-miterlimit:4;stroke-dasharray:2.50000002,10.00000008;stroke-dashoffset:0;stroke-opacity:1"
       d="m 330.18721,508.01539 c 0,-10.19896 35.73272,-18.46685 79.81126,-18.46685 44.07854,0 79.81127,8.26789 79.81127,18.46685"
       id="path6398-3" />
    <path
       style="fill:none;fill-rule:evenodd;stroke:#000000;stroke-width:1.56250002;stroke-linecap:round;stroke-linejoin:miter;stroke-opacity:1;stroke-miterlimit:4;stroke-dasharray:none"
       d="m 341.6214,191.10535 c 6.43587,51.27475 4.06961,100.66944 -7.99948,150.76755 -10.77473,54.85729 -14.76435,111.30389 -3.81395,166.39362"
       id="path6415"
       inkscape:connector-curvature="0"
       sodipodi:nodetypes="ccc" />
    <path
       style="fill:none;fill-rule:evenodd;stroke:#000000;stroke-width:1.56250002;stroke-linecap:round;stroke-linejoin:miter;stroke-opacity:1;stroke-miterlimit:4;stroke-dasharray:none"
       d="m 502.90738,191.35624 c -6.872,57.61327 4.87159,103.96851 3.55214,154.63398 -1.31946,50.66548 -10.37273,87.2917 -12.85159,110.78919 -2.47886,23.49749 -2.0883,41.91302 -3.42612,51.23598"
       id="path6419"
       inkscape:connector-curvature="0"
       sodipodi:nodetypes="czzc" />
    <path
       style="fill:none;fill-rule:evenodd;stroke:#0087ff;stroke-width:1.56250002;stroke-linecap:butt;stroke-linejoin:miter;stroke-opacity:1;marker-mid:url(#marker6921);stroke-miterlimit:4;stroke-dasharray:none"
       d="m 420.41567,208.7577 -2.39673,54.22595 -1.39134,31.47918"
       id="path6448"
       inkscape:connector-curvature="0"
       sodipodi:nodetypes="ccc" />
    <path
       style="fill:none;fill-rule:evenodd;stroke:#0087ff;stroke-width:1.56250002;stroke-linecap:butt;stroke-linejoin:miter;stroke-opacity:1;marker-mid:url(#marker6917);stroke-miterlimit:4;stroke-dasharray:none"
       d="m 436.98849,173.71803 c 0,2.22695 0.14884,8.06165 0.32262,16.09232 0.11417,5.27618 0.23911,11.50025 0.33968,18.27184"
       id="path6501"
       inkscape:connector-curvature="0"
       sodipodi:nodetypes="csc" />
    <path
       style="fill:none;fill-rule:evenodd;stroke:#0087ff;stroke-width:1.56250002;stroke-linecap:round;stroke-linejoin:miter;stroke-miterlimit:4;stroke-dasharray:4.68750004,4.68750004;stroke-dashoffset:0;stroke-opacity:1;marker-mid:url(#marker6913)"
       d="m 437.65079,208.08219 c 0.17652,11.8853 0.27796,25.4573 0.11435,38.55114 -0.29515,23.621 -1.45287,45.6859 -4.58852,53.48535 -7.37148,18.33547 -10.09774,21.20524 -17.28329,17.86933"
       id="path6497"
       inkscape:connector-curvature="0"
       sodipodi:nodetypes="cssc" />
    <path
       style="fill:none;fill-rule:evenodd;stroke:#0087ff;stroke-width:0.9375px;stroke-linecap:butt;stroke-linejoin:miter;stroke-opacity:1;marker-mid:url(#marker6909)"
       d="m 415.89333,317.98801 c -4.90582,-2.27754 -2.88832,-5.70341 -1.03399,-12.22738 0.8617,-3.03169 1.68816,-6.73241 1.76826,-11.2978"
       id="path6489"
       inkscape:connector-curvature="0"
       sodipodi:nodetypes="csc" />
    <path
       style="fill:none;fill-rule:evenodd;stroke:#fa0000;stroke-width:1.56250002;stroke-linecap:butt;stroke-linejoin:miter;stroke-opacity:1;marker-mid:url(#marker6905);stroke-miterlimit:4;stroke-dasharray:none"
       d="m 416.6276,294.46283 c -14.0736,0.14466 -29.98538,-4.77364 -35.88921,4.93616 -5.90384,9.70979 -12.90739,90.41899 -14.2266,128.11987 -1.31921,37.70088 5.9045,94.03463 5.9045,94.03463"
       id="path6450"
       inkscape:connector-curvature="0"
       sodipodi:nodetypes="ccsc" />
    <path
       style="fill:none;fill-rule:evenodd;stroke:#fa0000;stroke-width:1.56250002;stroke-linecap:butt;stroke-linejoin:miter;stroke-opacity:1;marker-mid:url(#marker6901);stroke-miterlimit:4;stroke-dasharray:none"
       d="m 416.6276,294.46283 c 5.98178,0.38898 28.21855,-4.22956 32.11225,1.84545 3.89371,6.07501 5.83837,19.61459 9.46136,57.34318 1.75472,18.2731 0.199,58.17401 -1.87208,94.4663 -2.2051,38.64063 -4.99441,73.19053 -4.99441,73.19053"
       id="path6454"
       inkscape:connector-curvature="0"
       sodipodi:nodetypes="czssc" />
    <path
       style="fill:none;fill-rule:evenodd;stroke:#fa0000;stroke-width:1.56250002;stroke-linecap:butt;stroke-linejoin:miter;stroke-opacity:1;marker-mid:url(#marker6897);stroke-miterlimit:4;stroke-dasharray:none"
       d="m 423.24859,403.19209 c 0.12283,21.2465 0.54736,15.14695 0.42744,40.19006 -0.15011,37.33496 -0.4193,82.15308 -0.4193,82.15308"
       id="path6787"
       inkscape:connector-curvature="0"
       sodipodi:nodetypes="ccc" />
    <path
       style="fill:none;fill-rule:evenodd;stroke:#fa0000;stroke-width:1.56250002;stroke-linecap:butt;stroke-linejoin:miter;stroke-opacity:1;marker-mid:url(#marker6893);stroke-miterlimit:4;stroke-dasharray:none"
       d="m 423.24859,403.19209 c 0.0472,-3.55542 -0.17695,-23.8201 -0.14057,-25.08605 0.0428,-1.4898 0.26358,-11.2491 -3.38172,-11.64425"
       id="path6493"
       inkscape:connector-curvature="0"
       sodipodi:nodetypes="csc" />
    <path
       style="fill:none;fill-rule:evenodd;stroke:#0087ff;stroke-width:1.56250002;stroke-linecap:butt;stroke-linejoin:miter;stroke-miterlimit:4;stroke-dasharray:none;stroke-opacity:1;marker-mid:url(#marker6885)"
       d="m 422.1634,351.13529 c 15.83625,0.16931 12.00756,17.41156 13.30236,30.4985 0.38809,23.01526 1.08282,22.02084 -12.21717,21.5583"
       id="path6773"
       inkscape:connector-curvature="0"
       sodipodi:nodetypes="ccc" />
    <path
       style="fill:none;fill-rule:evenodd;stroke:#0087ff;stroke-width:1.56250002;stroke-linecap:butt;stroke-linejoin:miter;stroke-miterlimit:4;stroke-dasharray:none;stroke-opacity:1;marker-mid:url(#marker6881)"
       d="m 408.31016,345.35962 c -15.42325,2.6628 -12.36036,19.27193 -12.55563,33.68275 -0.087,6.42035 5.67955,26.75189 27.49406,24.14972"
       id="path6458"
       inkscape:connector-curvature="0"
       sodipodi:nodetypes="csc" />
    <path
       style="fill:none;fill-rule:evenodd;stroke:#0087ff;stroke-width:1.56250002;stroke-linecap:butt;stroke-linejoin:miter;stroke-opacity:1;marker-mid:url(#marker6877);stroke-miterlimit:4;stroke-dasharray:none"
       d="m 408.39633,335.69943 c -4.86955,-46.5301 -16.26934,-27.4396 -20.23783,-3.17791 -3.48699,13.96617 -5.61555,36.4409 -5.89784,83.15494 -0.32624,53.98577 3.85322,107.50207 3.85322,107.50207"
       id="path6460"
       inkscape:connector-curvature="0"
       sodipodi:nodetypes="ccsc" />
    <path
       style="fill:none;fill-rule:evenodd;stroke:#0087ff;stroke-width:1.56250002;stroke-linecap:butt;stroke-linejoin:miter;stroke-opacity:1;marker-mid:url(#marker6873);stroke-miterlimit:4;stroke-dasharray:none"
       d="m 422.54008,334.39423 c 19.8131,-58.20921 23.22397,16.63386 22.26562,38.92299 0.59568,20.87786 -1.35286,63.59953 -3.2396,98.00557 -1.56105,28.4669 -3.24719,51.40868 -3.24757,51.40849"
       id="path6462"
       inkscape:connector-curvature="0"
       sodipodi:nodetypes="ccsc" />
    <circle
       style="opacity:0.98000004;fill:#000000;fill-opacity:1;fill-rule:evenodd;stroke:none;stroke-width:1.14919353;stroke-linecap:round;stroke-linejoin:round;stroke-miterlimit:4;stroke-dasharray:none;stroke-dashoffset:1.68000007;stroke-opacity:1"
       id="path6470"
       cx="423.20969"
       cy="403.61856"
       r="3.1808035" />
    <circle
       style="opacity:0.98000004;fill:#000000;fill-opacity:1;fill-rule:evenodd;stroke:none;stroke-width:1.14919353;stroke-linecap:round;stroke-linejoin:round;stroke-miterlimit:4;stroke-dasharray:none;stroke-dashoffset:1.68000007;stroke-opacity:1"
       id="path6470-6"
       cx="416.51328"
       cy="294.96899"
       r="3.1808033" />
    <g
       id="g3922-3"
       transform="rotate(90,373.73175,406.10348)"
       style="stroke-width:1.87500012;stroke-miterlimit:4;stroke-dasharray:none">
      <path
         id="path3833-8-6"
         d="m 343.12888,362.83382 c 0,4.84419 -13.79694,8.7712 -30.81632,8.7712 -17.01938,0 -30.81632,-3.92701 -30.81632,-8.7712"
         style="fill:none;stroke:#000000;stroke-width:1.87500012;stroke-linecap:round;stroke-linejoin:round;stroke-miterlimit:4;stroke-dasharray:none;stroke-dashoffset:0;stroke-opacity:1"
         inkscape:connector-curvature="0" />
      <path
         sodipodi:nodetypes="csc"
         inkscape:connector-curvature="0"
         id="path3828-5-7"
         d="m 284.77924,366.36936 c 0,-4.8442 7.98856,-9.02375 25.00794,-9.02375 17.01938,0 30.81632,3.92701 30.81632,8.77121"
         style="fill:none;stroke:#000000;stroke-width:1.87500012;stroke-linecap:round;stroke-linejoin:round;stroke-miterlimit:4;stroke-dasharray:none;stroke-dashoffset:0;stroke-opacity:1" />
    </g>
    <path
       style="fill:none;fill-rule:evenodd;stroke:#0087ff;stroke-width:1.56250002;stroke-linecap:butt;stroke-linejoin:miter;stroke-opacity:1;marker-mid:url(#marker6861);stroke-miterlimit:4;stroke-dasharray:none"
       d="m 394.77847,209.00882 c -1.03564,-1.88298 -1.34437,46.67115 -2.81973,67.69743 -1.47536,21.02628 -15.83527,4.77102 -23.4387,14.44202 -7.60343,9.671 -18.66138,99.50155 -20.12414,137.55436 -1.46276,38.05281 3.16153,88.19947 3.16153,88.19947"
       id="path6503"
       inkscape:connector-curvature="0"
       sodipodi:nodetypes="czzzc" />
    <path
       inkscape:connector-curvature="0"
       style="opacity:0.98000004;fill:none;fill-opacity:1;fill-rule:evenodd;stroke:#000000;stroke-width:2.50000002;stroke-linecap:round;stroke-linejoin:round;stroke-miterlimit:4;stroke-dasharray:none;stroke-dashoffset:0;stroke-opacity:1"
       d="m 489.80974,508.01539 c 0,10.19896 -35.73273,18.46685 -79.81127,18.46685 -44.07854,0 -79.81126,-8.26789 -79.81126,-18.46685"
       id="path1940" />
    <path
       style="fill:none;fill-rule:evenodd;stroke:#0087ff;stroke-width:1.56249998;stroke-linecap:butt;stroke-linejoin:miter;stroke-miterlimit:4;stroke-dasharray:none;stroke-opacity:1;marker-mid:url(#marker5584)"
       d="m 444.04315,209.17194 c -1.76291,31.45153 0.094,42.55521 -2.51116,63.61609 -2.60512,21.06087 11.76005,5.78699 21.09375,15.56919 9.3337,9.78219 9.74839,40.87254 12.22098,79.6875 0.84472,13.26048 0.0767,35.08474 -1.30071,58.07377 -1.17437,19.60018 -2.79172,40.04705 -4.23022,56.75502 -1.81295,21.05724 -3.34183,36.17568 -3.34183,36.17568"
       id="path5317"
       inkscape:connector-curvature="0"
       sodipodi:nodetypes="czzsssc" />
    <path
       style="opacity:0.98000004;fill:none;fill-opacity:1;fill-rule:evenodd;stroke:#000000;stroke-width:2.50000002;stroke-linecap:round;stroke-linejoin:round;stroke-miterlimit:4;stroke-dasharray:none;stroke-dashoffset:0;stroke-opacity:1"
       d="m 502.62306,190.29084 a 80.313341,18.466852 0 0 1 -80.31334,18.46685 80.313341,18.466852 0 0 1 -80.31333,-18.46685 80.313341,18.466852 0 0 1 80.31333,-18.46685 80.313341,18.466852 0 0 1 80.31334,18.46685 z"
       id="path6398"
       inkscape:connector-curvature="0" />
    <circle
       style="opacity:1;fill:#00c800;fill-opacity:1;fill-rule:evenodd;stroke:none;stroke-width:1.14919353;stroke-linecap:round;stroke-linejoin:round;stroke-miterlimit:4;stroke-dasharray:none;stroke-dashoffset:1.68000007;stroke-opacity:1"
       id="path6470-6-3"
       cx="478.73611"
       cy="203.07234"
       r="3.1808033" />
    <path
       style="opacity:1;fill:none;stroke:#0087ff;stroke-width:1.5625;stroke-linecap:butt;stroke-linejoin:miter;stroke-miterlimit:4;stroke-dasharray:none;stroke-opacity:1;marker-mid:url(#marker10679)"
       d="m 726.47916,364.09727 -1.49876,52.64682 -1.38037,48.48816"
       id="path5736-2-0-9-5-92-1"
       inkscape:connector-curvature="0"
       sodipodi:nodetypes="ccc" />
    <path
       style="opacity:1;fill:none;stroke:#0087ff;stroke-width:1.5625;stroke-linecap:butt;stroke-linejoin:miter;stroke-miterlimit:4;stroke-dasharray:none;stroke-opacity:1;marker-mid:url(#marker10683)"
       d="m 741.78664,357.68981 46.17923,34.47051 34.59109,25.82055"
       id="path5736-2-0-9-5"
       inkscape:connector-curvature="0"
       sodipodi:nodetypes="ccc" />
    <path
       style="opacity:1;fill:none;stroke:#0087ff;stroke-width:1.5625;stroke-linecap:butt;stroke-linejoin:miter;stroke-miterlimit:4;stroke-dasharray:none;stroke-opacity:1;marker-mid:url(#marker10695)"
       d="M 712.80361,337.22602 670.74965,304.6638 638.278,279.52112"
       id="path5736-2-0-9-5-9"
       inkscape:connector-curvature="0"
       sodipodi:nodetypes="ccc" />
    <path
       style="opacity:1;fill:none;stroke:#0087ff;stroke-width:1.5625;stroke-linecap:butt;stroke-linejoin:miter;stroke-miterlimit:4;stroke-dasharray:none;stroke-opacity:1;marker-mid:url(#marker10687)"
       d="m 743.08667,336.89334 50.15741,-36.58932 28.24885,-20.60727"
       id="path5736-2-0-9-5-2"
       inkscape:connector-curvature="0"
       sodipodi:nodetypes="ccc" />
    <path
       style="opacity:1;fill:none;stroke:#0087ff;stroke-width:1.5625;stroke-linecap:butt;stroke-linejoin:miter;stroke-miterlimit:4;stroke-dasharray:none;stroke-opacity:1;marker-mid:url(#marker10691)"
       d="m 725.54205,329.24545 -6.38076,-60.14903 -3.67209,-34.61517"
       id="path5736-2-0-9-5-7"
       inkscape:connector-curvature="0"
       sodipodi:nodetypes="ccc" />
    <path
       style="opacity:1;fill:none;stroke:#0087ff;stroke-width:1.5625;stroke-linecap:butt;stroke-linejoin:miter;stroke-miterlimit:4;stroke-dasharray:none;stroke-opacity:1;marker-mid:url(#marker10675)"
       d="m 710.91346,352.27186 -39.26421,18.68611 -47.84835,22.77141"
       id="path5736-2-0-9-5-3"
       inkscape:connector-curvature="0"
       sodipodi:nodetypes="ccc" />
    <circle
       style="opacity:0.98999999;fill:none;stroke:#000000;stroke-width:2.5;stroke-miterlimit:4;stroke-dasharray:none;stroke-dashoffset:0;stroke-opacity:1"
       id="path7556-1"
       cx="728.01672"
       cy="346.7338"
       r="17.679419" />
    <path
       sodipodi:nodetypes="cccc"
       inkscape:connector-curvature="0"
       id="path3885-0-4"
       d="m 812.0731,431.87986 c -15.36853,-14.48036 -30.76313,-28.91379 -46.25298,-43.18301 -3.03306,-4.48409 -0.40559,-2.81969 1.65531,-1.77067 15.48984,14.26921 30.88443,28.70267 46.25298,43.183"
       style="fill:none;stroke:#ff0000;stroke-width:1.5625;stroke-linecap:butt;stroke-linejoin:miter;stroke-miterlimit:4;stroke-dasharray:none;stroke-opacity:1" />
    <path
       sodipodi:nodetypes="cccc"
       inkscape:connector-curvature="0"
       id="path3885-0-4-5"
       d="m 685.32989,455.94218 24.54506,-57.56147 c 3.40218,-10.20114 0.82419,-5.6224 -1.84679,-0.81384 -8.68788,19.24555 -16.07641,37.82996 -24.5252,57.12151"
       style="fill:none;stroke:#ff0000;stroke-width:1.5625;stroke-linecap:butt;stroke-linejoin:miter;stroke-miterlimit:4;stroke-dasharray:none;stroke-opacity:1" />
    <path
       sodipodi:nodetypes="cccc"
       inkscape:connector-curvature="0"
       id="path3885-0-7"
       d="m 680.62452,243.14332 16.26595,32.98843 c 3.86059,5.64426 5.37459,6.75598 2.05091,-1.47627 L 682.92517,242.1176"
       style="fill:none;stroke:#ff0000;stroke-width:1.5625;stroke-linecap:butt;stroke-linejoin:miter;stroke-miterlimit:4;stroke-dasharray:none;stroke-opacity:1" />
    <path
       sodipodi:nodetypes="cccc"
       inkscape:connector-curvature="0"
       id="path3885-0-4-0-2"
       d="M 766.58691,458.30353 754.0596,424.26976 c -2.64787,-4.65069 -3.34031,-3.82605 -2.39529,0.77964 l 12.7286,34.50798"
       style="fill:none;stroke:#ff0000;stroke-width:1.5625;stroke-linecap:butt;stroke-linejoin:miter;stroke-miterlimit:4;stroke-dasharray:none;stroke-opacity:1" />
    <circle
       style="opacity:0.98999999;fill:none;stroke:#000000;stroke-width:2.5;stroke-miterlimit:4;stroke-dasharray:none;stroke-dashoffset:0;stroke-opacity:1"
       id="path7556"
       cx="729.80865"
       cy="349.16275"
       r="115.5962" />
    <circle
       style="opacity:1;fill:#00c800;fill-opacity:1;fill-rule:evenodd;stroke:none;stroke-width:0.83352089;stroke-linecap:round;stroke-linejoin:round;stroke-miterlimit:4;stroke-dasharray:none;stroke-dashoffset:1.68000007;stroke-opacity:1"
       id="path6470-6-3-6"
       cx="745.65259"
       cy="347.32269"
       r="2.3070667" />
  </g>
</svg>
