<?xml version="1.0" encoding="UTF-8" standalone="no"?>
<!-- Created with Inkscape (http://www.inkscape.org/) -->

<svg
   xmlns:dc="http://purl.org/dc/elements/1.1/"
   xmlns:cc="http://creativecommons.org/ns#"
   xmlns:rdf="http://www.w3.org/1999/02/22-rdf-syntax-ns#"
   xmlns:svg="http://www.w3.org/2000/svg"
   xmlns="http://www.w3.org/2000/svg"
   xmlns:sodipodi="http://sodipodi.sourceforge.net/DTD/sodipodi-0.dtd"
   xmlns:inkscape="http://www.inkscape.org/namespaces/inkscape"
   width="66.899002mm"
   height="58.173523mm"
   viewBox="0 0 66.899005 58.173523"
   version="1.1"
   id="svg1784"
   inkscape:version="0.92.2 (5c3e80d, 2017-08-06)"
   sodipodi:docname="SD_torus_action_pre.svg">
  <defs
     id="defs1778">
    <marker
       inkscape:stockid="Arrow1Mstart"
       orient="auto"
       refY="0"
       refX="0"
       id="marker9083"
       style="overflow:visible"
       inkscape:isstock="true">
      <path
         id="path9081"
         d="M 0,0 5,-5 -12.5,0 5,5 Z"
         style="fill:#ff0000;fill-opacity:1;fill-rule:evenodd;stroke:#ff0000;stroke-width:1.00000003pt;stroke-opacity:1"
         transform="matrix(0.4,0,0,0.4,4,0)"
         inkscape:connector-curvature="0" />
    </marker>
    <marker
       inkscape:stockid="Arrow1Mstart"
       orient="auto"
       refY="0"
       refX="0"
       id="marker9013"
       style="overflow:visible"
       inkscape:isstock="true">
      <path
         id="path9011"
         d="M 0,0 5,-5 -12.5,0 5,5 Z"
         style="fill:#ff0000;fill-opacity:1;fill-rule:evenodd;stroke:#ff0000;stroke-width:1.00000003pt;stroke-opacity:1"
         transform="matrix(0.4,0,0,0.4,4,0)"
         inkscape:connector-curvature="0" />
    </marker>
    <marker
       inkscape:isstock="true"
       style="overflow:visible"
       id="marker2848"
       refX="0"
       refY="0"
       orient="auto"
       inkscape:stockid="Arrow1Mstart">
      <path
         transform="matrix(0.4,0,0,0.4,4,0)"
         style="fill:#ff0000;fill-opacity:1;fill-rule:evenodd;stroke:#ff0000;stroke-width:1.00000003pt;stroke-opacity:1"
         d="M 0,0 5,-5 -12.5,0 5,5 Z"
         id="path2846"
         inkscape:connector-curvature="0" />
    </marker>
    <marker
       inkscape:isstock="true"
       style="overflow:visible"
       id="marker2820"
       refX="0"
       refY="0"
       orient="auto"
       inkscape:stockid="Arrow1Mstart">
      <path
         transform="matrix(0.4,0,0,0.4,4,0)"
         style="fill:#ff0000;fill-opacity:1;fill-rule:evenodd;stroke:#ff0000;stroke-width:1.00000003pt;stroke-opacity:1"
         d="M 0,0 5,-5 -12.5,0 5,5 Z"
         id="path2818"
         inkscape:connector-curvature="0" />
    </marker>
    <marker
       inkscape:isstock="true"
       style="overflow:visible"
       id="marker2798"
       refX="0"
       refY="0"
       orient="auto"
       inkscape:stockid="Arrow1Mstart">
      <path
         transform="matrix(0.4,0,0,0.4,4,0)"
         style="fill:#ff0000;fill-opacity:1;fill-rule:evenodd;stroke:#ff0000;stroke-width:1.00000003pt;stroke-opacity:1"
         d="M 0,0 5,-5 -12.5,0 5,5 Z"
         id="path2796"
         inkscape:connector-curvature="0" />
    </marker>
    <marker
       inkscape:stockid="Arrow1Mstart"
       orient="auto"
       refY="0"
       refX="0"
       id="Arrow1Mstart"
       style="overflow:visible"
       inkscape:isstock="true"
       inkscape:collect="always">
      <path
         id="path2520"
         d="M 0,0 5,-5 -12.5,0 5,5 Z"
         style="fill:#ff0000;fill-opacity:1;fill-rule:evenodd;stroke:#ff0000;stroke-width:1.00000003pt;stroke-opacity:1"
         transform="matrix(0.4,0,0,0.4,4,0)"
         inkscape:connector-curvature="0" />
    </marker>
    <marker
       inkscape:isstock="true"
       style="overflow:visible"
       id="marker2798-4"
       refX="0"
       refY="0"
       orient="auto"
       inkscape:stockid="Arrow1Mstart">
      <path
         inkscape:connector-curvature="0"
         transform="matrix(0.4,0,0,0.4,4,0)"
         style="fill:#ff0000;fill-opacity:1;fill-rule:evenodd;stroke:#ff0000;stroke-width:1.00000003pt;stroke-opacity:1"
         d="M 0,0 5,-5 -12.5,0 5,5 Z"
         id="path2796-3" />
    </marker>
    <marker
       inkscape:isstock="true"
       style="overflow:visible"
       id="marker2848-0"
       refX="0"
       refY="0"
       orient="auto"
       inkscape:stockid="Arrow1Mstart">
      <path
         inkscape:connector-curvature="0"
         transform="matrix(0.4,0,0,0.4,4,0)"
         style="fill:#ff0000;fill-opacity:1;fill-rule:evenodd;stroke:#ff0000;stroke-width:1.00000003pt;stroke-opacity:1"
         d="M 0,0 5,-5 -12.5,0 5,5 Z"
         id="path2846-7" />
    </marker>
    <marker
       inkscape:isstock="true"
       style="overflow:visible"
       id="marker2798-4-1"
       refX="0"
       refY="0"
       orient="auto"
       inkscape:stockid="Arrow1Mstart">
      <path
         inkscape:connector-curvature="0"
         transform="matrix(0.4,0,0,0.4,4,0)"
         style="fill:#ff0000;fill-opacity:1;fill-rule:evenodd;stroke:#ff0000;stroke-width:1.00000003pt;stroke-opacity:1"
         d="M 0,0 5,-5 -12.5,0 5,5 Z"
         id="path2796-3-5" />
    </marker>
    <marker
       inkscape:isstock="true"
       style="overflow:visible"
       id="marker2848-0-9"
       refX="0"
       refY="0"
       orient="auto"
       inkscape:stockid="Arrow1Mstart">
      <path
         inkscape:connector-curvature="0"
         transform="matrix(0.4,0,0,0.4,4,0)"
         style="fill:#ff0000;fill-opacity:1;fill-rule:evenodd;stroke:#ff0000;stroke-width:1.00000003pt;stroke-opacity:1"
         d="M 0,0 5,-5 -12.5,0 5,5 Z"
         id="path2846-7-8" />
    </marker>
    <marker
       inkscape:stockid="Arrow1Mstart"
       orient="auto"
       refY="0"
       refX="0"
       id="marker9013-3"
       style="overflow:visible"
       inkscape:isstock="true">
      <path
         id="path9011-0"
         d="M 0,0 5,-5 -12.5,0 5,5 Z"
         style="fill:#ff0000;fill-opacity:1;fill-rule:evenodd;stroke:#ff0000;stroke-width:1.00000003pt;stroke-opacity:1"
         transform="matrix(0.4,0,0,0.4,4,0)"
         inkscape:connector-curvature="0" />
    </marker>
  </defs>
  <sodipodi:namedview
     id="base"
     pagecolor="#ffffff"
     bordercolor="#666666"
     borderopacity="1.0"
     inkscape:pageopacity="0.0"
     inkscape:pageshadow="2"
     inkscape:zoom="3.959798"
     inkscape:cx="92.72524"
     inkscape:cy="109.76494"
     inkscape:document-units="mm"
     inkscape:current-layer="layer1"
     showgrid="false"
     fit-margin-top="0"
     fit-margin-left="0"
     fit-margin-right="0"
     fit-margin-bottom="0"
     inkscape:window-width="1920"
     inkscape:window-height="1031"
     inkscape:window-x="0"
     inkscape:window-y="20"
     inkscape:window-maximized="1" />
  <metadata
     id="metadata1781">
    <rdf:RDF>
      <cc:Work
         rdf:about="">
        <dc:format>image/svg+xml</dc:format>
        <dc:type
           rdf:resource="http://purl.org/dc/dcmitype/StillImage" />
        <dc:title></dc:title>
      </cc:Work>
    </rdf:RDF>
  </metadata>
  <g
     inkscape:label="Layer 1"
     inkscape:groupmode="layer"
     id="layer1"
     transform="translate(-62.556449,-51.332883)">
    <g
       id="g8579">
      <circle
         transform="rotate(60.000001)"
         cy="-42.089371"
         cx="116.12489"
         id="path3336-6-39-2"
         style="fill:none;fill-rule:evenodd;stroke:#000000;stroke-width:0.50800002;stroke-linecap:butt;stroke-linejoin:miter;stroke-miterlimit:4.02444458;stroke-dasharray:none;stroke-opacity:1"
         r="27.932077" />
      <circle
         r="0.97958052"
         cy="79.522499"
         cx="122.37558"
         id="path4138-2-15-1"
         style="fill:#000000;fill-opacity:1;stroke:#000000;stroke-width:0.31750003;stroke-linecap:round;stroke-linejoin:round;stroke-miterlimit:4.02444458;stroke-dasharray:none;stroke-opacity:1" />
      <path
         inkscape:connector-curvature="0"
         id="path4189-3-05-2"
         d="m 122.79264,79.510611 h 6.5018"
         style="fill:none;fill-rule:evenodd;stroke:#000000;stroke-width:0.31750003;stroke-linecap:round;stroke-linejoin:miter;stroke-miterlimit:4.02444458;stroke-dasharray:none;stroke-opacity:1" />
      <ellipse
         transform="matrix(0.50003977,0.86600244,-0.86604837,0.49996022,0,0)"
         ry="0.98009729"
         rx="0.98004538"
         cy="-43.138969"
         cx="88.27829"
         id="path4138-5-6-7-5"
         style="fill:#000000;fill-opacity:1;stroke:#000000;stroke-width:0.31750003;stroke-linecap:round;stroke-linejoin:round;stroke-miterlimit:4.02444458;stroke-dasharray:none;stroke-opacity:1" />
      <ellipse
         transform="rotate(-60.000001)"
         ry="0.9799878"
         rx="0.97998798"
         cy="121.94263"
         cx="-49.434315"
         id="path4138-5-6-4-5-5"
         style="fill:#000000;fill-opacity:1;stroke:#000000;stroke-width:0.31750003;stroke-linecap:round;stroke-linejoin:round;stroke-miterlimit:4.02444458;stroke-dasharray:none;stroke-opacity:1" />
      <ellipse
         transform="rotate(-60.000001)"
         ry="0.9799878"
         rx="0.97998798"
         cy="95.063515"
         cx="-30.52401"
         id="path4138-5-6-4-5-5-3"
         style="fill:#000000;fill-opacity:1;stroke:#000000;stroke-width:0.31750003;stroke-linecap:round;stroke-linejoin:round;stroke-miterlimit:4.02444458;stroke-dasharray:none;stroke-opacity:1" />
      <ellipse
         transform="rotate(-60.000001)"
         ry="0.9799878"
         rx="0.97998798"
         cy="122.07169"
         cx="6.3339677"
         id="path4138-5-6-4-5-5-6"
         style="fill:#000000;fill-opacity:1;stroke:#000000;stroke-width:0.31750003;stroke-linecap:round;stroke-linejoin:round;stroke-miterlimit:4.02444458;stroke-dasharray:none;stroke-opacity:1" />
      <ellipse
         transform="rotate(-60.000001)"
         ry="0.9799878"
         rx="0.97998798"
         cy="145.92877"
         cx="-35.38892"
         id="path4138-5-6-4-5-5-7"
         style="fill:#000000;fill-opacity:1;stroke:#000000;stroke-width:0.31750003;stroke-linecap:round;stroke-linejoin:round;stroke-miterlimit:4.02444458;stroke-dasharray:none;stroke-opacity:1" />
      <path
         id="path6069-7"
         d="m 87.476393,90.889907 a 1.9177134,1.0072065 87 0 1 -0.905459,1.967801 1.9177134,1.0072065 87 0 1 -1.106193,-1.862373 1.9177134,1.0072065 87 0 1 0.905459,-1.967801 1.9177134,1.0072065 87 0 1 1.106193,1.862373 z"
         style="fill:none;stroke:#000000;stroke-width:0.25400001;stroke-linecap:round;stroke-linejoin:round;stroke-miterlimit:4.02444458;stroke-dasharray:none;stroke-dashoffset:0;stroke-opacity:1"
         inkscape:connector-curvature="0" />
      <path
         id="path6366"
         d="m 103.60506,90.035482 c -0.5555,0.02911 -1.05076,-0.804698 -1.10619,-1.862373 -0.0554,-1.057669 0.34996,-1.938686 0.90546,-1.967796"
         style="fill:none;stroke:#000000;stroke-width:0.25400001;stroke-linecap:round;stroke-linejoin:round;stroke-miterlimit:4.02444458;stroke-dasharray:0.254, 1.016;stroke-dashoffset:0;stroke-opacity:1"
         inkscape:connector-curvature="0" />
      <path
         id="path6069-5"
         d="m 103.40433,86.205313 c 0.5555,-0.02911 1.05076,0.804699 1.10619,1.862373 0.0554,1.057669 -0.34996,1.938687 -0.90546,1.967796"
         style="fill:none;stroke:#000000;stroke-width:0.25400001;stroke-linecap:round;stroke-linejoin:round;stroke-miterlimit:4.02444458;stroke-dasharray:none;stroke-dashoffset:0;stroke-opacity:1"
         inkscape:connector-curvature="0" />
      <path
         sodipodi:nodetypes="cc"
         inkscape:connector-curvature="0"
         id="path6143"
         d="M 86.347253,89.029857 C 92.57399,87.554315 98.333015,86.76119 103.42218,86.204149"
         style="fill:none;fill-rule:evenodd;stroke:#000000;stroke-width:0.25400001;stroke-linecap:round;stroke-linejoin:round;stroke-miterlimit:4.02444458;stroke-dasharray:none;stroke-opacity:1" />
      <path
         sodipodi:nodetypes="cc"
         style="fill:none;fill-rule:evenodd;stroke:#000000;stroke-width:0.25400001;stroke-linecap:round;stroke-linejoin:round;stroke-miterlimit:4.02444458;stroke-dasharray:none;stroke-opacity:1"
         d="m 88.209584,92.650717 c 0.728672,-0.100291 1.349097,-0.192323 1.991545,-0.281628"
         id="path7134"
         inkscape:connector-curvature="0" />
      <path
         id="path6147"
         d="m 92.332827,92.008465 c 4.114371,-0.662049 7.335192,-1.307696 11.334123,-1.980198"
         style="fill:none;fill-rule:evenodd;stroke:#000000;stroke-width:0.25400001;stroke-linecap:round;stroke-linejoin:round;stroke-miterlimit:4.02444458;stroke-dasharray:none;stroke-opacity:1"
         inkscape:connector-curvature="0"
         sodipodi:nodetypes="cc" />
      <path
         sodipodi:nodetypes="cc"
         inkscape:connector-curvature="0"
         id="path6149"
         d="m 122.25842,79.607436 c -6.07522,0.04309 -14.10158,7.649197 -17.64815,8.253375"
         style="fill:none;fill-rule:evenodd;stroke:#000000;stroke-width:0.31750003;stroke-linecap:round;stroke-linejoin:round;stroke-miterlimit:4.02444458;stroke-dasharray:none;stroke-opacity:1" />
      <path
         sodipodi:nodetypes="cc"
         inkscape:connector-curvature="0"
         id="path6151"
         d="m 67.174872,73.889589 c 0,0 17.405805,17.027829 18.212153,16.927033"
         style="fill:none;fill-rule:evenodd;stroke:#000000;stroke-width:0.31750003;stroke-linecap:round;stroke-linejoin:round;stroke-miterlimit:4.02444458;stroke-dasharray:none;stroke-opacity:1" />
      <path
         sodipodi:nodetypes="csc"
         inkscape:connector-curvature="0"
         id="path6153"
         d="m 87.516291,90.904819 c 0,0 3.691567,-1.070933 7.622521,4.875892 3.930952,5.946829 14.010318,7.660319 14.010318,7.660319"
         style="fill:none;fill-rule:evenodd;stroke:#000000;stroke-width:0.31750003;stroke-linecap:round;stroke-linejoin:round;stroke-miterlimit:4.02444458;stroke-dasharray:none;stroke-opacity:1" />
      <path
         sodipodi:nodetypes="csc"
         inkscape:connector-curvature="0"
         id="path6155"
         d="m 81.128492,54.656897 c 2.988531,0.993262 0.121774,8.623529 0.897013,11.225652 0.887939,2.980391 2.747763,2.48259 4.94902,3.792604"
         style="fill:none;fill-rule:evenodd;stroke:#000000;stroke-width:0.31750003;stroke-linecap:round;stroke-linejoin:round;stroke-miterlimit:4.02444458;stroke-dasharray:none;stroke-opacity:1" />
      <path
         sodipodi:nodetypes="csc"
         inkscape:connector-curvature="0"
         id="path6266"
         d="m 88.852297,71.188279 c 3.148496,-0.215897 6.467289,3.752531 2.08572,6.746321 -2.27451,1.554104 -5.652462,6.30972 -7.828675,10.416177"
         style="fill:none;fill-rule:evenodd;stroke:#000000;stroke-width:0.31750003;stroke-linecap:round;stroke-linejoin:round;stroke-miterlimit:4.02444458;stroke-dasharray:none;stroke-opacity:1" />
      <path
         sodipodi:nodetypes="csc"
         inkscape:connector-curvature="0"
         id="path6157"
         d="m 82.352264,89.91873 c -0.875487,1.892514 -1.601173,3.857326 -1.646109,4.98548 -0.101205,2.540908 0.307222,7.14947 0.378319,8.5714"
         style="fill:none;fill-rule:evenodd;stroke:#000000;stroke-width:0.31750003;stroke-linecap:round;stroke-linejoin:round;stroke-miterlimit:4.02444458;stroke-dasharray:none;stroke-opacity:1" />
      <path
         sodipodi:nodetypes="csc"
         inkscape:connector-curvature="0"
         id="path6343"
         d="m 87.016853,72.27059 c -2.959503,0.168252 -6.727681,0.405232 -7.498097,-2.763667 -0.416013,-1.711156 0.276583,-3.213896 1.827158,-4.536426"
         style="fill:none;fill-rule:evenodd;stroke:#000000;stroke-width:0.31750003;stroke-linecap:round;stroke-linejoin:round;stroke-miterlimit:4.02444458;stroke-dasharray:none;stroke-opacity:1" />
      <path
         sodipodi:nodetypes="cc"
         inkscape:connector-curvature="0"
         id="path6159"
         d="m 83.175893,64.043863 c 7.973328,-4.77743 25.597677,-7.211089 25.570067,-8.379029"
         style="fill:none;fill-rule:evenodd;stroke:#000000;stroke-width:0.31750003;stroke-linecap:round;stroke-linejoin:round;stroke-miterlimit:4.02444458;stroke-dasharray:none;stroke-opacity:1" />
      <path
         id="path6069"
         d="m 88.796902,71.00517 a 1.9177134,1.0072065 84 0 1 -0.801234,2.012487 1.9177134,1.0072065 84 0 1 -1.202143,-1.801924 1.9177134,1.0072065 84 0 1 0.801232,-2.01249 1.9177134,1.0072065 84 0 1 1.202145,1.801927 z"
         style="fill:none;stroke:#000000;stroke-width:0.25400001;stroke-linecap:round;stroke-linejoin:round;stroke-miterlimit:4.02444458;stroke-dasharray:none;stroke-dashoffset:0;stroke-opacity:1"
         inkscape:connector-curvature="0" />
      <path
         style="fill:none;fill-rule:evenodd;stroke:#000000;stroke-width:0.25400001;stroke-linecap:round;stroke-linejoin:round;stroke-miterlimit:4.02444458;stroke-dasharray:none;stroke-opacity:1"
         d="m 89.627999,72.887895 c 0.36149,-0.02599 0.736979,-0.05262 1.07459,-0.0757"
         id="path7150"
         inkscape:connector-curvature="0" />
      <path
         id="path6108"
         d="m 93.572466,73.082933 c 8.455904,0.285112 7.329704,-6.432839 3.097281,-6.24975 -4.232421,0.183089 -5.806892,1.621469 -7.584189,1.97962"
         style="fill:none;fill-rule:evenodd;stroke:#000000;stroke-width:0.25400001;stroke-linecap:round;stroke-linejoin:round;stroke-miterlimit:4.02444458;stroke-dasharray:none;stroke-opacity:1"
         inkscape:connector-curvature="0"
         sodipodi:nodetypes="czc" />
      <path
         sodipodi:nodetypes="csc"
         inkscape:connector-curvature="0"
         id="path5952-1"
         d="m 96.823959,69.349322 c 0.0029,0.453206 -0.914251,0.888311 -1.744403,0.895186 -0.830149,0.0069 -1.589439,-0.321784 -1.592299,-0.774954"
         style="fill:none;fill-opacity:1;fill-rule:evenodd;stroke:#000000;stroke-width:0.25400001;stroke-linecap:round;stroke-miterlimit:4.02444458;stroke-dasharray:none;stroke-dashoffset:0;stroke-opacity:1" />
      <path
         sodipodi:nodetypes="csc"
         inkscape:connector-curvature="0"
         id="path5947-8"
         d="m 93.795142,69.883328 c -0.0029,-0.453172 0.471109,-0.695841 1.30126,-0.702713 0.830149,-0.0069 1.338623,0.172647 1.34148,0.625805"
         style="fill:none;fill-opacity:1;fill-rule:evenodd;stroke:#000000;stroke-width:0.25400001;stroke-linecap:round;stroke-miterlimit:4.02444458;stroke-dasharray:none;stroke-dashoffset:0;stroke-opacity:1" />
      <ellipse
         transform="scale(-1)"
         ry="1.57935"
         rx="1.6295894"
         cy="-93.569794"
         cx="-76.075546"
         id="path5826"
         style="fill:none;fill-opacity:0.10526315;fill-rule:evenodd;stroke:#000000;stroke-width:0.31750003;stroke-linecap:round;stroke-linejoin:round;stroke-miterlimit:4;stroke-dasharray:none;stroke-dashoffset:0;stroke-opacity:1" />
      <circle
         r="0.97958052"
         cy="94.592964"
         cx="70.879272"
         id="path4138-2-15-1-3"
         style="fill:#000000;fill-opacity:1;stroke:#000000;stroke-width:0.31750003;stroke-linecap:round;stroke-linejoin:round;stroke-miterlimit:4.02444458;stroke-dasharray:none;stroke-opacity:1" />
      <path
         sodipodi:nodetypes="cc"
         inkscape:connector-curvature="0"
         id="path5843"
         d="m 74.433061,93.772061 c -1.210559,0.102274 -1.315164,-0.186431 -3.161208,0.578146"
         style="fill:none;fill-rule:evenodd;stroke:#000000;stroke-width:0.28222224px;stroke-linecap:round;stroke-linejoin:miter;stroke-opacity:1" />
      <path
         sodipodi:nodetypes="cc"
         inkscape:connector-curvature="0"
         id="path5845"
         d="m 75.010578,90.54852 0.406481,1.497576"
         style="fill:none;fill-rule:evenodd;stroke:#000000;stroke-width:0.28222224px;stroke-linecap:round;stroke-linejoin:miter;stroke-opacity:1" />
      <path
         inkscape:connector-curvature="0"
         id="path5847"
         d="m 104.1453,86.685088 0.75281,-0.582714"
         style="fill:none;fill-rule:evenodd;stroke:#000000;stroke-width:0.28222224px;stroke-linecap:round;stroke-linejoin:miter;stroke-opacity:1" />
      <text
         id="text5849"
         y="89.778572"
         x="72.351746"
         style="font-style:normal;font-weight:normal;font-size:3.38666677px;line-height:0%;font-family:sans-serif;letter-spacing:0px;word-spacing:0px;fill:#000000;fill-opacity:1;stroke:none;stroke-width:0.28222224px;stroke-linecap:butt;stroke-linejoin:miter;stroke-opacity:1"
         xml:space="preserve"><tspan
           style="font-size:1.41111112px;line-height:1.25;stroke-width:0.28222224px"
           y="89.778572"
           x="72.351746"
           id="tspan5851"
           sodipodi:role="line">$L_1$</tspan></text>
      <text
         id="text5849-6"
         y="84.760635"
         x="104.07433"
         style="font-style:normal;font-weight:normal;font-size:3.38666677px;line-height:0%;font-family:sans-serif;letter-spacing:0px;word-spacing:0px;fill:#000000;fill-opacity:1;stroke:none;stroke-width:0.28222224px;stroke-linecap:butt;stroke-linejoin:miter;stroke-opacity:1"
         xml:space="preserve"><tspan
           style="font-size:1.41111112px;line-height:1.25;stroke-width:0.28222224px"
           y="84.760635"
           x="104.07433"
           id="tspan5851-7"
           sodipodi:role="line">$L_2$</tspan></text>
      <text
         id="text4176"
         y="83.493858"
         x="122.87627"
         style="font-style:normal;font-weight:normal;font-size:3.38666677px;line-height:0%;font-family:sans-serif;letter-spacing:0px;word-spacing:0px;fill:#000000;fill-opacity:1;stroke:none;stroke-width:0.28222224px;stroke-linecap:butt;stroke-linejoin:miter;stroke-opacity:1"
         xml:space="preserve"><tspan
           style="font-size:1.41111112px;line-height:1.25;stroke-width:0.28222224px"
           y="83.493858"
           x="122.87627"
           id="tspan4178"
           sodipodi:role="line">$0$</tspan></text>
      <text
         id="text4176-3"
         y="109.29901"
         x="108.6885"
         style="font-style:normal;font-weight:normal;font-size:3.38666677px;line-height:0%;font-family:sans-serif;letter-spacing:0px;word-spacing:0px;fill:#000000;fill-opacity:1;stroke:none;stroke-width:0.28222224px;stroke-linecap:butt;stroke-linejoin:miter;stroke-opacity:1"
         xml:space="preserve"><tspan
           style="font-size:1.41111112px;line-height:1.25;stroke-width:0.28222224px"
           y="109.29901"
           x="108.6885"
           id="tspan4178-6"
           sodipodi:role="line">$1$</tspan></text>
      <text
         id="text4176-7"
         y="109.29901"
         x="78.320946"
         style="font-style:normal;font-weight:normal;font-size:3.38666677px;line-height:0%;font-family:sans-serif;letter-spacing:0px;word-spacing:0px;fill:#000000;fill-opacity:1;stroke:none;stroke-width:0.28222224px;stroke-linecap:butt;stroke-linejoin:miter;stroke-opacity:1"
         xml:space="preserve"><tspan
           style="font-size:1.41111112px;line-height:1.25;stroke-width:0.28222224px"
           y="109.29901"
           x="78.320946"
           id="tspan4178-5"
           sodipodi:role="line">$2$</tspan></text>
      <text
         id="text4176-35"
         y="74.448372"
         x="62.439316"
         style="font-style:normal;font-weight:normal;font-size:3.38666677px;line-height:0%;font-family:sans-serif;letter-spacing:0px;word-spacing:0px;fill:#000000;fill-opacity:1;stroke:none;stroke-width:0.28222224px;stroke-linecap:butt;stroke-linejoin:miter;stroke-opacity:1"
         xml:space="preserve"><tspan
           style="font-size:1.41111112px;line-height:1.25;stroke-width:0.28222224px"
           y="74.448372"
           x="62.439316"
           id="tspan4178-62"
           sodipodi:role="line">$4$</tspan></text>
      <text
         id="text4176-9"
         y="52.53793"
         x="78.320946"
         style="font-style:normal;font-weight:normal;font-size:3.38666677px;line-height:0%;font-family:sans-serif;letter-spacing:0px;word-spacing:0px;fill:#000000;fill-opacity:1;stroke:none;stroke-width:0.28222224px;stroke-linecap:butt;stroke-linejoin:miter;stroke-opacity:1"
         xml:space="preserve"><tspan
           style="font-size:1.41111112px;line-height:1.25;stroke-width:0.28222224px"
           y="52.53793"
           x="78.320946"
           id="tspan4178-1"
           sodipodi:role="line">$5$</tspan></text>
      <text
         id="text4176-2"
         y="52.53793"
         x="108.6885"
         style="font-style:normal;font-weight:normal;font-size:3.38666677px;line-height:0%;font-family:sans-serif;letter-spacing:0px;word-spacing:0px;fill:#000000;fill-opacity:1;stroke:none;stroke-width:0.28222224px;stroke-linecap:butt;stroke-linejoin:miter;stroke-opacity:1"
         xml:space="preserve"><tspan
           style="font-size:1.41111112px;line-height:1.25;stroke-width:0.28222224px"
           y="52.53793"
           x="108.6885"
           id="tspan4178-7"
           sodipodi:role="line">$6$</tspan></text>
      <text
         id="text4176-35-0"
         y="98.972885"
         x="66.011528"
         style="font-style:normal;font-weight:normal;font-size:3.38666677px;line-height:0%;font-family:sans-serif;letter-spacing:0px;word-spacing:0px;fill:#000000;fill-opacity:1;stroke:none;stroke-width:0.28222224px;stroke-linecap:butt;stroke-linejoin:miter;stroke-opacity:1"
         xml:space="preserve"><tspan
           style="font-size:1.41111112px;line-height:1.25;stroke-width:0.28222224px"
           y="98.972885"
           x="66.011528"
           id="tspan4178-62-9"
           sodipodi:role="line">$3$</tspan></text>
      <path
         id="path2496"
         d="m 82.936965,90.326104 c -0.809933,1.790612 -1.441936,3.894195 -1.48489,4.972595 -0.101205,2.540909 0.135557,5.733641 0.206655,7.155571 0,0 0.770689,0.41109 0.964297,1.26262"
         style="fill:none;fill-rule:evenodd;stroke:#ff0000;stroke-width:0.25400001;stroke-linecap:round;stroke-linejoin:round;stroke-miterlimit:4.02444458;stroke-dasharray:0.50800002, 1.52400006;stroke-dashoffset:1.09220004;stroke-opacity:1"
         inkscape:connector-curvature="0" />
      <path
         sodipodi:nodetypes="csc"
         inkscape:connector-curvature="0"
         id="path2494"
         d="m 82.454413,104.00725 c 2.27739,0.85429 6.201052,2.59979 11.267418,2.78492 6.771579,0.24744 13.075759,-2.8717 13.075759,-2.8717"
         style="fill:none;fill-rule:evenodd;stroke:#ff0000;stroke-width:0.25400001;stroke-linecap:round;stroke-linejoin:round;stroke-miterlimit:4.02444458;stroke-dasharray:none;stroke-opacity:1;marker-mid:url(#marker2798)" />
      <path
         id="path2492"
         d="m 106.79759,103.92047 c -0.2029,-0.0543 -7.872098,-1.92131 -12.281634,-7.799762 -4.277597,-5.702569 -6.463391,-4.447523 -6.463391,-4.447523 0.09302,0.896986 -0.690641,1.948947 -1.457924,1.915874 C 85.962057,93.561796 85.041617,92.39223 85.07444,91.372852 84.182234,91.128326 67.961009,75.498554 67.961009,75.498554"
         style="fill:none;fill-rule:evenodd;stroke:#ff0000;stroke-width:0.25400001;stroke-linecap:round;stroke-linejoin:round;stroke-miterlimit:4.02444458;stroke-dasharray:0.50800002, 1.52400006;stroke-dashoffset:0;stroke-opacity:1"
         inkscape:connector-curvature="0" />
      <path
         sodipodi:nodetypes="csc"
         inkscape:connector-curvature="0"
         id="path2508"
         d="m 67.559409,75.498554 c -0.564657,2.663265 -0.448138,5.869712 0.154316,8.975871 0.604073,3.114506 1.767948,6.14006 3.10429,8.463716"
         style="fill:none;fill-rule:evenodd;stroke:#ff0000;stroke-width:0.25400001;stroke-linecap:round;stroke-linejoin:round;stroke-miterlimit:4.02444458;stroke-dasharray:none;stroke-opacity:1;marker-mid:url(#marker2848)" />
      <path
         sodipodi:nodetypes="csc"
         inkscape:connector-curvature="0"
         id="path2490"
         d="m 72.341051,95.448337 c 0.778156,1.176465 2.165656,2.587002 3.558844,3.841207 2.024791,1.822796 4.061598,3.315386 4.257317,3.279306"
         style="fill:none;fill-rule:evenodd;stroke:#ff0000;stroke-width:0.25400001;stroke-linecap:round;stroke-linejoin:round;stroke-miterlimit:4.02444458;stroke-dasharray:none;stroke-opacity:1;marker-mid:url(#Arrow1Mstart)" />
      <path
         id="path6256"
         d="m 80.157212,102.56885 c -0.13762,-2.12225 -0.357643,-5.722164 -0.236011,-7.735521 0.06883,-1.139303 0.941378,-3.350644 1.843013,-5.279046"
         style="fill:none;fill-rule:evenodd;stroke:#ff0000;stroke-width:0.25400001;stroke-linecap:round;stroke-linejoin:round;stroke-miterlimit:4.02444458;stroke-dasharray:0.50800002, 1.52400006;stroke-dashoffset:1.2700001;stroke-opacity:1"
         inkscape:connector-curvature="0" />
      <path
         id="path6254"
         d="m 82.506373,87.82115 c 2.191018,-4.160204 5.279057,-8.261892 7.800775,-10.178971"
         style="fill:none;fill-rule:evenodd;stroke:#ff0000;stroke-width:0.25400001;stroke-linecap:round;stroke-linejoin:round;stroke-miterlimit:4.02444458;stroke-dasharray:0.50800002, 1.52400006;stroke-dashoffset:0;stroke-opacity:1"
         inkscape:connector-curvature="0"
         sodipodi:nodetypes="cc" />
      <path
         sodipodi:nodetypes="ccscsc"
         inkscape:connector-curvature="0"
         id="path6349"
         d="m 90.307148,77.642179 c 3.599366,-2.736334 1.727186,-5.007932 -0.846963,-5.717599 0.07965,0.637173 -0.454988,1.49963 -0.872126,1.656616 -0.674475,0.253828 -1.102428,0.163785 -1.589547,-0.628187 -3.092167,0.170027 -7.243289,0.599996 -8.114586,-3.747099 -0.377368,-1.882772 0.598069,-3.501644 2.398951,-4.901983"
         style="fill:none;fill-rule:evenodd;stroke:#ff0000;stroke-width:0.25400001;stroke-linecap:round;stroke-linejoin:round;stroke-miterlimit:4.02444458;stroke-dasharray:0.50800002, 1.52400006;stroke-dashoffset:0;stroke-opacity:1" />
      <path
         id="path2502"
         d="m 83.379012,62.951995 c 8.06228,-4.413701 23.947668,-6.285865 23.920948,-7.416108"
         style="fill:none;fill-rule:evenodd;stroke:#ff0000;stroke-width:0.25400001;stroke-linecap:round;stroke-linejoin:round;stroke-miterlimit:4.02444458;stroke-dasharray:0.50800002, 1.52400006;stroke-dashoffset:0.25400001;stroke-opacity:1"
         inkscape:connector-curvature="0" />
      <path
         sodipodi:nodetypes="csc"
         inkscape:connector-curvature="0"
         id="path2500"
         d="m 107.32358,55.465016 c 0.12548,0.0708 -6.01496,-3.370114 -13.319435,-3.256337 -5.64172,0.08788 -10.475432,2.367206 -10.899613,2.558094"
         style="fill:none;fill-rule:evenodd;stroke:#ff0000;stroke-width:0.25400001;stroke-linecap:round;stroke-linejoin:round;stroke-miterlimit:4.02444458;stroke-dasharray:none;stroke-opacity:1;marker-mid:url(#marker2820)" />
      <path
         id="path6286"
         d="m 83.139967,55.084012 c 0.162524,0.326706 -0.246402,0.6209 -0.09354,1.054992 0.85486,2.427551 -0.699767,7.287438 -0.241658,9.254352 0.700405,3.007225 2.333464,2.718627 4.205436,3.693188 0,0 0.904161,-0.566572 1.490957,-0.104095 0.646315,0.509386 0.948366,1.55253 0.926635,1.779694 3.087223,0.0629 6.488049,4.188499 2.410217,7.345381 -2.584433,2.000758 -5.914729,6.611928 -8.090959,10.74978"
         style="fill:none;fill-rule:evenodd;stroke:#ff0000;stroke-width:0.25400001;stroke-linecap:round;stroke-linejoin:round;stroke-miterlimit:4.02444458;stroke-dasharray:0.50800002, 1.52400006;stroke-dashoffset:1.16840005;stroke-opacity:1"
         inkscape:connector-curvature="0" />
    </g>
  </g>
</svg>
