<?xml version="1.0" encoding="UTF-8" standalone="no"?>
<!-- Created with Inkscape (http://www.inkscape.org/) -->

<svg
   xmlns:dc="http://purl.org/dc/elements/1.1/"
   xmlns:cc="http://creativecommons.org/ns#"
   xmlns:rdf="http://www.w3.org/1999/02/22-rdf-syntax-ns#"
   xmlns:svg="http://www.w3.org/2000/svg"
   xmlns="http://www.w3.org/2000/svg"
   xmlns:sodipodi="http://sodipodi.sourceforge.net/DTD/sodipodi-0.dtd"
   xmlns:inkscape="http://www.inkscape.org/namespaces/inkscape"
   width="85.728386mm"
   height="33.983856mm"
   viewBox="0 0 303.762 120.41524"
   id="svg4479"
   version="1.1"
   inkscape:version="0.92.2 (5c3e80d, 2017-08-06)"
   sodipodi:docname="SD_top_degree.svg">
  <defs
     id="defs4481" />
  <sodipodi:namedview
     id="base"
     pagecolor="#ffffff"
     bordercolor="#666666"
     borderopacity="1.0"
     inkscape:pageopacity="0.0"
     inkscape:pageshadow="2"
     inkscape:zoom="2.8"
     inkscape:cx="146.89326"
     inkscape:cy="15.948814"
     inkscape:document-units="px"
     inkscape:current-layer="layer1"
     showgrid="false"
     showguides="false"
     fit-margin-top="0"
     fit-margin-left="0"
     fit-margin-right="0"
     fit-margin-bottom="0"
     inkscape:window-width="1920"
     inkscape:window-height="1030"
     inkscape:window-x="0"
     inkscape:window-y="21"
     inkscape:window-maximized="1" />
  <metadata
     id="metadata4484">
    <rdf:RDF>
      <cc:Work
         rdf:about="">
        <dc:format>image/svg+xml</dc:format>
        <dc:type
           rdf:resource="http://purl.org/dc/dcmitype/StillImage" />
        <dc:title></dc:title>
      </cc:Work>
    </rdf:RDF>
  </metadata>
  <g
     inkscape:label="Layer 1"
     inkscape:groupmode="layer"
     id="layer1"
     transform="translate(-310.2542,-459.55772)">
    <text
       xml:space="preserve"
       style="font-style:normal;font-weight:normal;line-height:0%;font-family:sans-serif;letter-spacing:0px;word-spacing:0px;fill:#000000;fill-opacity:1;stroke:none;stroke-width:1px;stroke-linecap:butt;stroke-linejoin:miter;stroke-opacity:1"
       x="349.68277"
       y="579.2381"
       id="text10111"><tspan
         sodipodi:role="line"
         id="tspan10113"
         x="349.68277"
         y="579.2381"
         style="font-size:5px;line-height:1.25">$(a)$</tspan></text>
    <text
       xml:space="preserve"
       style="font-style:normal;font-weight:normal;line-height:0%;font-family:sans-serif;letter-spacing:0px;word-spacing:0px;fill:#000000;fill-opacity:1;stroke:none;stroke-width:1px;stroke-linecap:butt;stroke-linejoin:miter;stroke-opacity:1"
       x="543.46851"
       y="579.2381"
       id="text10115"><tspan
         sodipodi:role="line"
         id="tspan10117"
         x="543.46851"
         y="579.2381"
         style="font-size:5px;line-height:1.25">$(b)$</tspan></text>
    <g
       id="g1128"
       transform="translate(-190.372)">
      <g
         transform="translate(-8)"
         id="g5294">
        <ellipse
           style="fill:none;fill-rule:evenodd;stroke:#000000;stroke-width:1;stroke-linecap:butt;stroke-linejoin:miter;stroke-miterlimit:4;stroke-dasharray:none;stroke-opacity:1"
           id="path3336-6-39-2-6-3"
           cx="723.00623"
           cy="-229.66132"
           rx="49.717106"
           ry="49.717102"
           transform="rotate(60.000001)" />
        <circle
           style="fill:#000000;fill-opacity:1;stroke:#000000;stroke-width:0.51283383;stroke-miterlimit:4;stroke-dasharray:none;stroke-opacity:1"
           id="path4138-2-15-1-0-5"
           cx="609.98914"
           cy="511.31122"
           r="1.7435832" />
        <path
           style="fill:none;fill-rule:evenodd;stroke:#000000;stroke-width:0.75;stroke-linecap:round;stroke-linejoin:miter;stroke-miterlimit:4.07999992;stroke-dasharray:none;stroke-opacity:1"
           d="m 610.73148,511.29004 h 11.57275"
           id="path4189-3-05-2-6-6"
           inkscape:connector-curvature="0" />
        <ellipse
           style="fill:#000000;fill-opacity:1;stroke:#000000;stroke-width:0.60000002;stroke-miterlimit:4;stroke-dasharray:none;stroke-opacity:1"
           id="path4138-5-6-7-5-2-2"
           cx="680.06232"
           cy="-254.68961"
           rx="1.7444109"
           ry="1.7445033"
           transform="matrix(0.50003977,0.86600244,-0.86604837,0.49996022,0,0)" />
        <path
           style="fill:none;fill-rule:evenodd;stroke:#000000;stroke-width:0.75;stroke-linecap:round;stroke-linejoin:miter;stroke-miterlimit:4.07999992;stroke-dasharray:none;stroke-opacity:1"
           d="M 594.70614,546.44979 560.599,461.42217"
           id="path5069-9"
           inkscape:connector-curvature="0"
           sodipodi:nodetypes="cc" />
        <ellipse
           style="fill:#000000;fill-opacity:1;stroke:#000000;stroke-width:0.60000002;stroke-miterlimit:4;stroke-dasharray:none;stroke-opacity:1"
           id="path4138-5-6-7-5-2-3-1"
           cx="674.98175"
           cy="-216.82977"
           rx="1.7444109"
           ry="1.7445033"
           transform="matrix(0.50003977,0.86600244,-0.86604837,0.49996022,0,0)" />
        <ellipse
           style="fill:#000000;fill-opacity:1;stroke:#000000;stroke-width:0.60000002;stroke-miterlimit:4;stroke-dasharray:none;stroke-opacity:1"
           id="path4138-5-6-7-5-2-7-2"
           cx="736.38666"
           cy="-181.63454"
           rx="1.7444109"
           ry="1.7445033"
           transform="matrix(0.50003977,0.86600244,-0.86604837,0.49996022,0,0)" />
        <ellipse
           style="fill:#000000;fill-opacity:1;stroke:#000000;stroke-width:0.60000002;stroke-miterlimit:4;stroke-dasharray:none;stroke-opacity:1"
           id="path4138-5-6-7-5-2-5-7"
           cx="766.11115"
           cy="-204.96338"
           rx="1.7444109"
           ry="1.7445033"
           transform="matrix(0.50003977,0.86600244,-0.86604837,0.49996022,0,0)" />
        <ellipse
           style="fill:#000000;fill-opacity:1;stroke:#000000;stroke-width:0.60000002;stroke-miterlimit:4;stroke-dasharray:none;stroke-opacity:1"
           id="path4138-5-6-7-5-2-3-3-0"
           cx="708.1535"
           cy="-276.82294"
           rx="1.7444109"
           ry="1.7445033"
           transform="matrix(0.50003977,0.86600244,-0.86604837,0.49996022,0,0)" />
        <ellipse
           style="fill:#000000;fill-opacity:1;stroke:#000000;stroke-width:0.60000002;stroke-miterlimit:4;stroke-dasharray:none;stroke-opacity:1"
           id="path4138-5-6-7-5-2-3-6-9"
           cx="770.85907"
           cy="-241.85506"
           rx="1.7444109"
           ry="1.7445033"
           transform="matrix(0.50003977,0.86600244,-0.86604837,0.49996022,0,0)" />
        <path
           inkscape:connector-curvature="0"
           style="fill:none;fill-rule:evenodd;stroke:#000000;stroke-width:0.75;stroke-linecap:round;stroke-linejoin:miter;stroke-miterlimit:4.07999992;stroke-dasharray:none;stroke-opacity:1"
           d="m 525.90052,546.66173 18.29895,-19.21892"
           id="path5180-3" />
        <path
           inkscape:connector-curvature="0"
           style="fill:none;fill-rule:evenodd;stroke:#000000;stroke-width:0.75;stroke-linecap:round;stroke-linejoin:miter;stroke-miterlimit:4.07999992;stroke-dasharray:none;stroke-opacity:1"
           d="m 547.06978,524.42819 25.79937,-27.09642"
           id="path5176-6" />
        <path
           inkscape:connector-curvature="0"
           style="fill:none;fill-rule:evenodd;stroke:#000000;stroke-width:0.75;stroke-linecap:round;stroke-linejoin:miter;stroke-miterlimit:4.07999992;stroke-dasharray:none;stroke-opacity:1"
           d="m 575.51879,494.54892 18.41745,-19.34338"
           id="path5069-7-0" />
        <path
           style="fill:none;fill-rule:evenodd;stroke:#000000;stroke-width:0.75;stroke-linecap:round;stroke-linejoin:miter;stroke-miterlimit:4.07999992;stroke-dasharray:none;stroke-opacity:1"
           d="M 560.54338,561.12601 525.00767,476.27697"
           id="path5069-5-6"
           inkscape:connector-curvature="0"
           sodipodi:nodetypes="cc" />
        <path
           style="fill:none;fill-rule:evenodd;stroke:#000000;stroke-width:0.75;stroke-linecap:round;stroke-linejoin:miter;stroke-miterlimit:4.07999992;stroke-dasharray:none;stroke-opacity:1"
           d="m 510.37434,512.67471 8.98346,-0.0893"
           id="path4189-3-05-2-6-6-2"
           inkscape:connector-curvature="0"
           sodipodi:nodetypes="cc" />
        <path
           style="fill:none;fill-rule:evenodd;stroke:#000000;stroke-width:0.75;stroke-linecap:round;stroke-linejoin:miter;stroke-miterlimit:4.07999992;stroke-dasharray:none;stroke-opacity:1"
           d="m 579.4538,556.92955 -2.25372,-6.81853"
           id="path4189-3-05-2-6-6-6"
           inkscape:connector-curvature="0"
           sodipodi:nodetypes="cc" />
        <ellipse
           style="fill:#000000;fill-opacity:1;stroke:#000000;stroke-width:0.60000002;stroke-miterlimit:4;stroke-dasharray:none;stroke-opacity:1"
           id="path4138-5-6-7-5-2-5-7-1"
           cx="772.43433"
           cy="-223.22905"
           rx="1.7444109"
           ry="1.7445033"
           transform="matrix(0.50003977,0.86600244,-0.86604837,0.49996022,0,0)" />
        <ellipse
           style="fill:#000000;fill-opacity:1;stroke:#000000;stroke-width:0.60000002;stroke-miterlimit:4;stroke-dasharray:none;stroke-opacity:1"
           id="path4138-5-6-7-5-2-5-7-8"
           cx="699.35425"
           cy="-185.8611"
           rx="1.7444109"
           ry="1.7445033"
           transform="matrix(0.50003977,0.86600244,-0.86604837,0.49996022,0,0)" />
      </g>
      <g
         id="g1025">
        <text
           xml:space="preserve"
           style="font-style:normal;font-weight:normal;font-size:12px;line-height:0%;font-family:sans-serif;letter-spacing:0px;word-spacing:0px;fill:#000000;fill-opacity:1;stroke:none;stroke-width:1px;stroke-linecap:butt;stroke-linejoin:miter;stroke-opacity:1"
           x="513.87018"
           y="518.22717"
           id="text10111-3"><tspan
             sodipodi:role="line"
             id="tspan10113-5"
             x="513.87018"
             y="518.22717"
             style="font-size:5px;line-height:1.25;stroke-width:1px">$1$</tspan></text>
        <text
           xml:space="preserve"
           style="font-style:normal;font-weight:normal;font-size:12px;line-height:0%;font-family:sans-serif;letter-spacing:0px;word-spacing:0px;fill:#000000;fill-opacity:1;stroke:none;stroke-width:1px;stroke-linecap:butt;stroke-linejoin:miter;stroke-opacity:1"
           x="563.43121"
           y="547.53595"
           id="text10111-3-6"><tspan
             sodipodi:role="line"
             id="tspan10113-5-2"
             x="563.43121"
             y="547.53595"
             style="font-size:5px;line-height:1.25;stroke-width:1px">$2$</tspan></text>
      </g>
    </g>
    <g
       id="g1102"
       transform="translate(191.25)">
      <g
         transform="translate(0,4.6428531)"
         id="g5236">
        <ellipse
           style="fill:none;fill-rule:evenodd;stroke:#000000;stroke-width:1;stroke-linecap:butt;stroke-linejoin:miter;stroke-miterlimit:4;stroke-dasharray:none;stroke-opacity:1"
           id="path3336-6-39-2-6"
           cx="619.02618"
           cy="-58.848347"
           rx="49.717106"
           ry="49.717102"
           transform="rotate(60.000001)" />
        <circle
           style="fill:#000000;fill-opacity:1;stroke:#000000;stroke-width:0.51283383;stroke-miterlimit:4;stroke-dasharray:none;stroke-opacity:1"
           id="path4138-2-15-1-0"
           cx="410.07077"
           cy="506.66837"
           r="1.7435832" />
        <path
           style="fill:none;fill-rule:evenodd;stroke:#000000;stroke-width:0.75;stroke-linecap:round;stroke-linejoin:miter;stroke-miterlimit:4.07999992;stroke-dasharray:none;stroke-opacity:1"
           d="m 410.8131,506.64718 h 11.57275"
           id="path4189-3-05-2-6"
           inkscape:connector-curvature="0" />
        <ellipse
           style="fill:#000000;fill-opacity:1;stroke:#000000;stroke-width:0.60000002;stroke-miterlimit:4;stroke-dasharray:none;stroke-opacity:1"
           id="path4138-5-6-7-5-2"
           cx="576.09015"
           cy="-83.881424"
           rx="1.7444109"
           ry="1.7445033"
           transform="matrix(0.50003977,0.86600244,-0.86604837,0.49996022,0,0)" />
        <path
           style="fill:none;fill-rule:evenodd;stroke:#000000;stroke-width:0.75;stroke-linecap:round;stroke-linejoin:miter;stroke-miterlimit:4.07999992;stroke-dasharray:none;stroke-opacity:1"
           d="M 394.78776,541.80693 360.68062,456.77931"
           id="path5069"
           inkscape:connector-curvature="0"
           sodipodi:nodetypes="cc" />
        <ellipse
           style="fill:#000000;fill-opacity:1;stroke:#000000;stroke-width:0.60000002;stroke-miterlimit:4;stroke-dasharray:none;stroke-opacity:1"
           id="path4138-5-6-7-5-2-3"
           cx="571.00958"
           cy="-46.021587"
           rx="1.7444109"
           ry="1.7445033"
           transform="matrix(0.50003977,0.86600244,-0.86604837,0.49996022,0,0)" />
        <ellipse
           style="fill:#000000;fill-opacity:1;stroke:#000000;stroke-width:0.60000002;stroke-miterlimit:4;stroke-dasharray:none;stroke-opacity:1"
           id="path4138-5-6-7-5-2-7"
           cx="632.41449"
           cy="-10.826352"
           rx="1.7444109"
           ry="1.7445033"
           transform="matrix(0.50003977,0.86600244,-0.86604837,0.49996022,0,0)" />
        <ellipse
           style="fill:#000000;fill-opacity:1;stroke:#000000;stroke-width:0.60000002;stroke-miterlimit:4;stroke-dasharray:none;stroke-opacity:1"
           id="path4138-5-6-7-5-2-5"
           cx="662.13898"
           cy="-34.155193"
           rx="1.7444109"
           ry="1.7445033"
           transform="matrix(0.50003977,0.86600244,-0.86604837,0.49996022,0,0)" />
        <ellipse
           style="fill:#000000;fill-opacity:1;stroke:#000000;stroke-width:0.60000002;stroke-miterlimit:4;stroke-dasharray:none;stroke-opacity:1"
           id="path4138-5-6-7-5-2-3-3"
           cx="604.18134"
           cy="-106.01473"
           rx="1.7444109"
           ry="1.7445033"
           transform="matrix(0.50003977,0.86600244,-0.86604837,0.49996022,0,0)" />
        <ellipse
           style="fill:#000000;fill-opacity:1;stroke:#000000;stroke-width:0.60000002;stroke-miterlimit:4;stroke-dasharray:none;stroke-opacity:1"
           id="path4138-5-6-7-5-2-3-6"
           cx="666.8869"
           cy="-71.046875"
           rx="1.7444109"
           ry="1.7445033"
           transform="matrix(0.50003977,0.86600244,-0.86604837,0.49996022,0,0)" />
        <path
           inkscape:connector-curvature="0"
           style="fill:none;fill-rule:evenodd;stroke:#000000;stroke-width:0.75;stroke-linecap:round;stroke-linejoin:miter;stroke-miterlimit:4.07999992;stroke-dasharray:none;stroke-opacity:1"
           d="m 325.98214,542.01887 18.29895,-19.21892"
           id="path5180" />
        <path
           inkscape:connector-curvature="0"
           style="fill:none;fill-rule:evenodd;stroke:#000000;stroke-width:0.75;stroke-linecap:round;stroke-linejoin:miter;stroke-miterlimit:4.07999992;stroke-dasharray:none;stroke-opacity:1"
           d="m 347.1514,519.78533 25.79937,-27.09642"
           id="path5176" />
        <path
           inkscape:connector-curvature="0"
           style="fill:none;fill-rule:evenodd;stroke:#000000;stroke-width:0.75;stroke-linecap:round;stroke-linejoin:miter;stroke-miterlimit:4.07999992;stroke-dasharray:none;stroke-opacity:1"
           d="m 375.60041,489.90606 18.41745,-19.34338"
           id="path5069-7" />
        <path
           style="fill:none;fill-rule:evenodd;stroke:#000000;stroke-width:0.75;stroke-linecap:round;stroke-linejoin:miter;stroke-miterlimit:4.07999992;stroke-dasharray:none;stroke-opacity:1"
           d="M 360.625,556.48315 325.08929,471.63411"
           id="path5069-5"
           inkscape:connector-curvature="0"
           sodipodi:nodetypes="cc" />
      </g>
      <g
         transform="translate(-195,1.875)"
         id="g1025-0">
        <text
           xml:space="preserve"
           style="font-style:normal;font-weight:normal;font-size:12px;line-height:0%;font-family:sans-serif;letter-spacing:0px;word-spacing:0px;fill:#000000;fill-opacity:1;stroke:none;stroke-width:1px;stroke-linecap:butt;stroke-linejoin:miter;stroke-opacity:1"
           x="513.87018"
           y="518.22717"
           id="text10111-3-9"><tspan
             sodipodi:role="line"
             id="tspan10113-5-3"
             x="513.87018"
             y="518.22717"
             style="font-size:5px;line-height:1.25;stroke-width:1px">$1$</tspan></text>
        <text
           xml:space="preserve"
           style="font-style:normal;font-weight:normal;font-size:12px;line-height:0%;font-family:sans-serif;letter-spacing:0px;word-spacing:0px;fill:#000000;fill-opacity:1;stroke:none;stroke-width:1px;stroke-linecap:butt;stroke-linejoin:miter;stroke-opacity:1"
           x="563.43121"
           y="547.53595"
           id="text10111-3-6-6"><tspan
             sodipodi:role="line"
             id="tspan10113-5-2-0"
             x="563.43121"
             y="547.53595"
             style="font-size:5px;line-height:1.25;stroke-width:1px">$2$</tspan></text>
      </g>
    </g>
  </g>
</svg>
